(kicad_sch (version 20211123) (generator eeschema)

  (uuid e5e066a5-5e76-454e-b79b-251d1d40f301)

  (paper "A4")

  (title_block
    (title "Sitina 1 Mainboard")
    (date "2022-04-28")
    (rev "R0.1")
    (company "Copyright 2022 Wenting Zhang")
    (comment 2 "MERCHANTABILITY, SATISFACTORY QUALITY AND FITNESS FOR A PARTICULAR PURPOSE.")
    (comment 3 "This source is distributed WITHOUT ANY EXPRESS OR IMPLIED WARRANTY, INCLUDING OF")
    (comment 4 "This source describes Open Hardware and is licensed under the CERN-OHL-P v2.")
  )

  (lib_symbols
  )


  (text "Not supported, this page is intentionally left blank"
    (at 104.14 104.14 0)
    (effects (font (size 2.54 2.54)) (justify left bottom))
    (uuid 8e4fe1c4-257b-4662-bf54-25aeceb1cee4)
  )
)
