(kicad_sch (version 20230121) (generator eeschema)

  (uuid a486bc16-30f5-4073-ac98-aff81113640c)

  (paper "A4")

  (title_block
    (title "Sitina 1 Mainboard")
    (date "2023-03-16")
    (rev "R0.6")
    (company "Copyright 2023 Wenting Zhang")
    (comment 2 "MERCHANTABILITY, SATISFACTORY QUALITY AND FITNESS FOR A PARTICULAR PURPOSE.")
    (comment 3 "This source is distributed WITHOUT ANY EXPRESS OR IMPLIED WARRANTY, INCLUDING OF")
    (comment 4 "This source describes Open Hardware and is licensed under the CERN-OHL-P v2.")
  )

  (lib_symbols
    (symbol "Device:C" (pin_numbers hide) (pin_names (offset 0.254)) (in_bom yes) (on_board yes)
      (property "Reference" "C" (at 0.635 2.54 0)
        (effects (font (size 1.27 1.27)) (justify left))
      )
      (property "Value" "C" (at 0.635 -2.54 0)
        (effects (font (size 1.27 1.27)) (justify left))
      )
      (property "Footprint" "" (at 0.9652 -3.81 0)
        (effects (font (size 1.27 1.27)) hide)
      )
      (property "Datasheet" "~" (at 0 0 0)
        (effects (font (size 1.27 1.27)) hide)
      )
      (property "ki_keywords" "cap capacitor" (at 0 0 0)
        (effects (font (size 1.27 1.27)) hide)
      )
      (property "ki_description" "Unpolarized capacitor" (at 0 0 0)
        (effects (font (size 1.27 1.27)) hide)
      )
      (property "ki_fp_filters" "C_*" (at 0 0 0)
        (effects (font (size 1.27 1.27)) hide)
      )
      (symbol "C_0_1"
        (polyline
          (pts
            (xy -2.032 -0.762)
            (xy 2.032 -0.762)
          )
          (stroke (width 0.508) (type default))
          (fill (type none))
        )
        (polyline
          (pts
            (xy -2.032 0.762)
            (xy 2.032 0.762)
          )
          (stroke (width 0.508) (type default))
          (fill (type none))
        )
      )
      (symbol "C_1_1"
        (pin passive line (at 0 3.81 270) (length 2.794)
          (name "~" (effects (font (size 1.27 1.27))))
          (number "1" (effects (font (size 1.27 1.27))))
        )
        (pin passive line (at 0 -3.81 90) (length 2.794)
          (name "~" (effects (font (size 1.27 1.27))))
          (number "2" (effects (font (size 1.27 1.27))))
        )
      )
    )
    (symbol "Device:C_Polarized_US" (pin_numbers hide) (pin_names (offset 0.254) hide) (in_bom yes) (on_board yes)
      (property "Reference" "C" (at 0.635 2.54 0)
        (effects (font (size 1.27 1.27)) (justify left))
      )
      (property "Value" "C_Polarized_US" (at 0.635 -2.54 0)
        (effects (font (size 1.27 1.27)) (justify left))
      )
      (property "Footprint" "" (at 0 0 0)
        (effects (font (size 1.27 1.27)) hide)
      )
      (property "Datasheet" "~" (at 0 0 0)
        (effects (font (size 1.27 1.27)) hide)
      )
      (property "ki_keywords" "cap capacitor" (at 0 0 0)
        (effects (font (size 1.27 1.27)) hide)
      )
      (property "ki_description" "Polarized capacitor, US symbol" (at 0 0 0)
        (effects (font (size 1.27 1.27)) hide)
      )
      (property "ki_fp_filters" "CP_*" (at 0 0 0)
        (effects (font (size 1.27 1.27)) hide)
      )
      (symbol "C_Polarized_US_0_1"
        (polyline
          (pts
            (xy -2.032 0.762)
            (xy 2.032 0.762)
          )
          (stroke (width 0.508) (type default))
          (fill (type none))
        )
        (polyline
          (pts
            (xy -1.778 2.286)
            (xy -0.762 2.286)
          )
          (stroke (width 0) (type default))
          (fill (type none))
        )
        (polyline
          (pts
            (xy -1.27 1.778)
            (xy -1.27 2.794)
          )
          (stroke (width 0) (type default))
          (fill (type none))
        )
        (arc (start 2.032 -1.27) (mid 0 -0.5572) (end -2.032 -1.27)
          (stroke (width 0.508) (type default))
          (fill (type none))
        )
      )
      (symbol "C_Polarized_US_1_1"
        (pin passive line (at 0 3.81 270) (length 2.794)
          (name "~" (effects (font (size 1.27 1.27))))
          (number "1" (effects (font (size 1.27 1.27))))
        )
        (pin passive line (at 0 -3.81 90) (length 3.302)
          (name "~" (effects (font (size 1.27 1.27))))
          (number "2" (effects (font (size 1.27 1.27))))
        )
      )
    )
    (symbol "Device:R" (pin_numbers hide) (pin_names (offset 0)) (in_bom yes) (on_board yes)
      (property "Reference" "R" (at 2.032 0 90)
        (effects (font (size 1.27 1.27)))
      )
      (property "Value" "R" (at 0 0 90)
        (effects (font (size 1.27 1.27)))
      )
      (property "Footprint" "" (at -1.778 0 90)
        (effects (font (size 1.27 1.27)) hide)
      )
      (property "Datasheet" "~" (at 0 0 0)
        (effects (font (size 1.27 1.27)) hide)
      )
      (property "ki_keywords" "R res resistor" (at 0 0 0)
        (effects (font (size 1.27 1.27)) hide)
      )
      (property "ki_description" "Resistor" (at 0 0 0)
        (effects (font (size 1.27 1.27)) hide)
      )
      (property "ki_fp_filters" "R_*" (at 0 0 0)
        (effects (font (size 1.27 1.27)) hide)
      )
      (symbol "R_0_1"
        (rectangle (start -1.016 -2.54) (end 1.016 2.54)
          (stroke (width 0.254) (type default))
          (fill (type none))
        )
      )
      (symbol "R_1_1"
        (pin passive line (at 0 3.81 270) (length 1.27)
          (name "~" (effects (font (size 1.27 1.27))))
          (number "1" (effects (font (size 1.27 1.27))))
        )
        (pin passive line (at 0 -3.81 90) (length 1.27)
          (name "~" (effects (font (size 1.27 1.27))))
          (number "2" (effects (font (size 1.27 1.27))))
        )
      )
    )
    (symbol "Regulator_Linear:LT3045xMSE" (in_bom yes) (on_board yes)
      (property "Reference" "U" (at -6.35 6.35 0)
        (effects (font (size 1.27 1.27)))
      )
      (property "Value" "LT3045xMSE" (at 1.27 6.35 0)
        (effects (font (size 1.27 1.27)) (justify left))
      )
      (property "Footprint" "Package_SO:MSOP-12-1EP_3x4mm_P0.65mm_EP1.65x2.85mm" (at 0 8.255 0)
        (effects (font (size 1.27 1.27)) hide)
      )
      (property "Datasheet" "https://www.analog.com/media/en/technical-documentation/data-sheets/3045fa.pdf" (at 0 0 0)
        (effects (font (size 1.27 1.27)) hide)
      )
      (property "ki_keywords" "linear voltage regulator low-noise" (at 0 0 0)
        (effects (font (size 1.27 1.27)) hide)
      )
      (property "ki_description" "500mA, Adjustable, Ultralow Noise, Ultrahigh PSRR Linear Regulator, MSOP-12" (at 0 0 0)
        (effects (font (size 1.27 1.27)) hide)
      )
      (property "ki_fp_filters" "MSOP*1EP*3x4mm*P0.65mm*" (at 0 0 0)
        (effects (font (size 1.27 1.27)) hide)
      )
      (symbol "LT3045xMSE_0_1"
        (rectangle (start -7.62 5.08) (end 7.62 -7.62)
          (stroke (width 0.254) (type default))
          (fill (type background))
        )
      )
      (symbol "LT3045xMSE_1_1"
        (pin power_in line (at -10.16 2.54 0) (length 2.54)
          (name "IN" (effects (font (size 1.27 1.27))))
          (number "1" (effects (font (size 1.27 1.27))))
        )
        (pin input line (at 10.16 0 180) (length 2.54)
          (name "OUTS" (effects (font (size 1.27 1.27))))
          (number "10" (effects (font (size 1.27 1.27))))
        )
        (pin power_out line (at 10.16 2.54 180) (length 2.54)
          (name "OUT" (effects (font (size 1.27 1.27))))
          (number "11" (effects (font (size 1.27 1.27))))
        )
        (pin passive line (at 10.16 2.54 180) (length 2.54) hide
          (name "OUT" (effects (font (size 1.27 1.27))))
          (number "12" (effects (font (size 1.27 1.27))))
        )
        (pin passive line (at 0 -10.16 90) (length 2.54) hide
          (name "GND" (effects (font (size 1.27 1.27))))
          (number "13" (effects (font (size 1.27 1.27))))
        )
        (pin passive line (at -10.16 2.54 0) (length 2.54) hide
          (name "IN" (effects (font (size 1.27 1.27))))
          (number "2" (effects (font (size 1.27 1.27))))
        )
        (pin passive line (at -10.16 2.54 0) (length 2.54) hide
          (name "IN" (effects (font (size 1.27 1.27))))
          (number "3" (effects (font (size 1.27 1.27))))
        )
        (pin input line (at -10.16 0 0) (length 2.54)
          (name "EN/UV" (effects (font (size 1.27 1.27))))
          (number "4" (effects (font (size 1.27 1.27))))
        )
        (pin open_collector line (at 10.16 -5.08 180) (length 2.54)
          (name "PG" (effects (font (size 1.27 1.27))))
          (number "5" (effects (font (size 1.27 1.27))))
        )
        (pin passive line (at -10.16 -2.54 0) (length 2.54)
          (name "ILIM" (effects (font (size 1.27 1.27))))
          (number "6" (effects (font (size 1.27 1.27))))
        )
        (pin input line (at 10.16 -2.54 180) (length 2.54)
          (name "PGFB" (effects (font (size 1.27 1.27))))
          (number "7" (effects (font (size 1.27 1.27))))
        )
        (pin passive line (at -10.16 -5.08 0) (length 2.54)
          (name "SET" (effects (font (size 1.27 1.27))))
          (number "8" (effects (font (size 1.27 1.27))))
        )
        (pin power_in line (at 0 -10.16 90) (length 2.54)
          (name "GND" (effects (font (size 1.27 1.27))))
          (number "9" (effects (font (size 1.27 1.27))))
        )
      )
    )
    (symbol "Regulator_Linear:XC6206PxxxMR" (pin_names (offset 0.254)) (in_bom yes) (on_board yes)
      (property "Reference" "U" (at -3.81 3.175 0)
        (effects (font (size 1.27 1.27)))
      )
      (property "Value" "XC6206PxxxMR" (at 0 3.175 0)
        (effects (font (size 1.27 1.27)) (justify left))
      )
      (property "Footprint" "Package_TO_SOT_SMD:SOT-23-3" (at 0 5.715 0)
        (effects (font (size 1.27 1.27) italic) hide)
      )
      (property "Datasheet" "https://www.torexsemi.com/file/xc6206/XC6206.pdf" (at 0 0 0)
        (effects (font (size 1.27 1.27)) hide)
      )
      (property "ki_keywords" "Torex LDO Voltage Regulator Fixed Positive" (at 0 0 0)
        (effects (font (size 1.27 1.27)) hide)
      )
      (property "ki_description" "Positive 60-250mA Low Dropout Regulator, Fixed Output, SOT-23" (at 0 0 0)
        (effects (font (size 1.27 1.27)) hide)
      )
      (property "ki_fp_filters" "SOT?23?3*" (at 0 0 0)
        (effects (font (size 1.27 1.27)) hide)
      )
      (symbol "XC6206PxxxMR_0_1"
        (rectangle (start -5.08 1.905) (end 5.08 -5.08)
          (stroke (width 0.254) (type default))
          (fill (type background))
        )
      )
      (symbol "XC6206PxxxMR_1_1"
        (pin power_in line (at 0 -7.62 90) (length 2.54)
          (name "GND" (effects (font (size 1.27 1.27))))
          (number "1" (effects (font (size 1.27 1.27))))
        )
        (pin power_out line (at 7.62 0 180) (length 2.54)
          (name "VO" (effects (font (size 1.27 1.27))))
          (number "2" (effects (font (size 1.27 1.27))))
        )
        (pin power_in line (at -7.62 0 0) (length 2.54)
          (name "VI" (effects (font (size 1.27 1.27))))
          (number "3" (effects (font (size 1.27 1.27))))
        )
      )
    )
    (symbol "power:+1V8" (power) (pin_names (offset 0)) (in_bom yes) (on_board yes)
      (property "Reference" "#PWR" (at 0 -3.81 0)
        (effects (font (size 1.27 1.27)) hide)
      )
      (property "Value" "+1V8" (at 0 3.556 0)
        (effects (font (size 1.27 1.27)))
      )
      (property "Footprint" "" (at 0 0 0)
        (effects (font (size 1.27 1.27)) hide)
      )
      (property "Datasheet" "" (at 0 0 0)
        (effects (font (size 1.27 1.27)) hide)
      )
      (property "ki_keywords" "global power" (at 0 0 0)
        (effects (font (size 1.27 1.27)) hide)
      )
      (property "ki_description" "Power symbol creates a global label with name \"+1V8\"" (at 0 0 0)
        (effects (font (size 1.27 1.27)) hide)
      )
      (symbol "+1V8_0_1"
        (polyline
          (pts
            (xy -0.762 1.27)
            (xy 0 2.54)
          )
          (stroke (width 0) (type default))
          (fill (type none))
        )
        (polyline
          (pts
            (xy 0 0)
            (xy 0 2.54)
          )
          (stroke (width 0) (type default))
          (fill (type none))
        )
        (polyline
          (pts
            (xy 0 2.54)
            (xy 0.762 1.27)
          )
          (stroke (width 0) (type default))
          (fill (type none))
        )
      )
      (symbol "+1V8_1_1"
        (pin power_in line (at 0 0 90) (length 0) hide
          (name "+1V8" (effects (font (size 1.27 1.27))))
          (number "1" (effects (font (size 1.27 1.27))))
        )
      )
    )
    (symbol "power:+3V3" (power) (pin_names (offset 0)) (in_bom yes) (on_board yes)
      (property "Reference" "#PWR" (at 0 -3.81 0)
        (effects (font (size 1.27 1.27)) hide)
      )
      (property "Value" "+3V3" (at 0 3.556 0)
        (effects (font (size 1.27 1.27)))
      )
      (property "Footprint" "" (at 0 0 0)
        (effects (font (size 1.27 1.27)) hide)
      )
      (property "Datasheet" "" (at 0 0 0)
        (effects (font (size 1.27 1.27)) hide)
      )
      (property "ki_keywords" "power-flag" (at 0 0 0)
        (effects (font (size 1.27 1.27)) hide)
      )
      (property "ki_description" "Power symbol creates a global label with name \"+3V3\"" (at 0 0 0)
        (effects (font (size 1.27 1.27)) hide)
      )
      (symbol "+3V3_0_1"
        (polyline
          (pts
            (xy -0.762 1.27)
            (xy 0 2.54)
          )
          (stroke (width 0) (type default))
          (fill (type none))
        )
        (polyline
          (pts
            (xy 0 0)
            (xy 0 2.54)
          )
          (stroke (width 0) (type default))
          (fill (type none))
        )
        (polyline
          (pts
            (xy 0 2.54)
            (xy 0.762 1.27)
          )
          (stroke (width 0) (type default))
          (fill (type none))
        )
      )
      (symbol "+3V3_1_1"
        (pin power_in line (at 0 0 90) (length 0) hide
          (name "+3V3" (effects (font (size 1.27 1.27))))
          (number "1" (effects (font (size 1.27 1.27))))
        )
      )
    )
    (symbol "power:GND" (power) (pin_names (offset 0)) (in_bom yes) (on_board yes)
      (property "Reference" "#PWR" (at 0 -6.35 0)
        (effects (font (size 1.27 1.27)) hide)
      )
      (property "Value" "GND" (at 0 -3.81 0)
        (effects (font (size 1.27 1.27)))
      )
      (property "Footprint" "" (at 0 0 0)
        (effects (font (size 1.27 1.27)) hide)
      )
      (property "Datasheet" "" (at 0 0 0)
        (effects (font (size 1.27 1.27)) hide)
      )
      (property "ki_keywords" "power-flag" (at 0 0 0)
        (effects (font (size 1.27 1.27)) hide)
      )
      (property "ki_description" "Power symbol creates a global label with name \"GND\" , ground" (at 0 0 0)
        (effects (font (size 1.27 1.27)) hide)
      )
      (symbol "GND_0_1"
        (polyline
          (pts
            (xy 0 0)
            (xy 0 -1.27)
            (xy 1.27 -1.27)
            (xy 0 -2.54)
            (xy -1.27 -1.27)
            (xy 0 -1.27)
          )
          (stroke (width 0) (type default))
          (fill (type none))
        )
      )
      (symbol "GND_1_1"
        (pin power_in line (at 0 0 270) (length 0) hide
          (name "GND" (effects (font (size 1.27 1.27))))
          (number "1" (effects (font (size 1.27 1.27))))
        )
      )
    )
    (symbol "symbols:+15VL" (power) (pin_names (offset 0)) (in_bom yes) (on_board yes)
      (property "Reference" "#PWR" (at 0 -3.81 0)
        (effects (font (size 1.27 1.27)) hide)
      )
      (property "Value" "+15VL" (at 0 3.556 0)
        (effects (font (size 1.27 1.27)))
      )
      (property "Footprint" "" (at 0 0 0)
        (effects (font (size 1.27 1.27)) hide)
      )
      (property "Datasheet" "" (at 0 0 0)
        (effects (font (size 1.27 1.27)) hide)
      )
      (symbol "+15VL_0_1"
        (polyline
          (pts
            (xy -0.762 1.27)
            (xy 0 2.54)
          )
          (stroke (width 0) (type default))
          (fill (type none))
        )
        (polyline
          (pts
            (xy 0 0)
            (xy 0 2.54)
          )
          (stroke (width 0) (type default))
          (fill (type none))
        )
        (polyline
          (pts
            (xy 0 2.54)
            (xy 0.762 1.27)
          )
          (stroke (width 0) (type default))
          (fill (type none))
        )
      )
      (symbol "+15VL_1_1"
        (pin power_in line (at 0 0 90) (length 0) hide
          (name "+15VL" (effects (font (size 1.27 1.27))))
          (number "1" (effects (font (size 1.27 1.27))))
        )
      )
    )
    (symbol "symbols:+15VR" (power) (pin_names (offset 0)) (in_bom yes) (on_board yes)
      (property "Reference" "#PWR" (at 0 -3.81 0)
        (effects (font (size 1.27 1.27)) hide)
      )
      (property "Value" "+15VR" (at 0 3.556 0)
        (effects (font (size 1.27 1.27)))
      )
      (property "Footprint" "" (at 0 0 0)
        (effects (font (size 1.27 1.27)) hide)
      )
      (property "Datasheet" "" (at 0 0 0)
        (effects (font (size 1.27 1.27)) hide)
      )
      (symbol "+15VR_0_1"
        (polyline
          (pts
            (xy -0.762 1.27)
            (xy 0 2.54)
          )
          (stroke (width 0) (type default))
          (fill (type none))
        )
        (polyline
          (pts
            (xy 0 0)
            (xy 0 2.54)
          )
          (stroke (width 0) (type default))
          (fill (type none))
        )
        (polyline
          (pts
            (xy 0 2.54)
            (xy 0.762 1.27)
          )
          (stroke (width 0) (type default))
          (fill (type none))
        )
      )
      (symbol "+15VR_1_1"
        (pin power_in line (at 0 0 90) (length 0) hide
          (name "+15VR" (effects (font (size 1.27 1.27))))
          (number "1" (effects (font (size 1.27 1.27))))
        )
      )
    )
    (symbol "symbols:+16V" (power) (pin_names (offset 0)) (in_bom yes) (on_board yes)
      (property "Reference" "#PWR" (at 0 -3.81 0)
        (effects (font (size 1.27 1.27)) hide)
      )
      (property "Value" "+16V" (at 0 3.556 0)
        (effects (font (size 1.27 1.27)))
      )
      (property "Footprint" "" (at 0 0 0)
        (effects (font (size 1.27 1.27)) hide)
      )
      (property "Datasheet" "" (at 0 0 0)
        (effects (font (size 1.27 1.27)) hide)
      )
      (symbol "+16V_0_1"
        (polyline
          (pts
            (xy -0.762 1.27)
            (xy 0 2.54)
          )
          (stroke (width 0) (type default))
          (fill (type none))
        )
        (polyline
          (pts
            (xy 0 0)
            (xy 0 2.54)
          )
          (stroke (width 0) (type default))
          (fill (type none))
        )
        (polyline
          (pts
            (xy 0 2.54)
            (xy 0.762 1.27)
          )
          (stroke (width 0) (type default))
          (fill (type none))
        )
      )
      (symbol "+16V_1_1"
        (pin power_in line (at 0 0 90) (length 0) hide
          (name "+16V" (effects (font (size 1.27 1.27))))
          (number "1" (effects (font (size 1.27 1.27))))
        )
      )
    )
  )

  (junction (at 134.62 38.1) (diameter 0) (color 0 0 0 0)
    (uuid 00497c04-0994-4b56-9ef9-478850006f22)
  )
  (junction (at 170.18 73.66) (diameter 0) (color 0 0 0 0)
    (uuid 17d50c1e-2ba4-4bed-8d18-78d68d029c2b)
  )
  (junction (at 114.3 66.04) (diameter 0) (color 0 0 0 0)
    (uuid 191c4f67-729b-47fe-99b9-728c63c8c319)
  )
  (junction (at 165.1 66.04) (diameter 0) (color 0 0 0 0)
    (uuid 235bac9e-8190-4e8e-a0f3-e1e9dc590874)
  )
  (junction (at 139.7 119.38) (diameter 0) (color 0 0 0 0)
    (uuid 40b67b3e-349b-46d5-92e1-88a16c1c857b)
  )
  (junction (at 182.88 66.04) (diameter 0) (color 0 0 0 0)
    (uuid 4bd015d7-962d-4480-a6a1-fa72c64d9540)
  )
  (junction (at 165.1 119.38) (diameter 0) (color 0 0 0 0)
    (uuid 50ab33c6-12e0-4284-9ddf-1a3b626a8f83)
  )
  (junction (at 92.71 119.38) (diameter 0) (color 0 0 0 0)
    (uuid 6d78d773-969a-46c8-8991-d5d29ede98c3)
  )
  (junction (at 139.7 127) (diameter 0) (color 0 0 0 0)
    (uuid 7126eb40-2990-45a3-a9d0-6ca98150c8c3)
  )
  (junction (at 139.7 73.66) (diameter 0) (color 0 0 0 0)
    (uuid 75dffba3-4088-4d41-b7eb-9501f85d59bc)
  )
  (junction (at 139.7 66.04) (diameter 0) (color 0 0 0 0)
    (uuid 768f478f-1bce-4ba3-9fa2-14c131bbf47e)
  )
  (junction (at 114.3 38.1) (diameter 0) (color 0 0 0 0)
    (uuid 7be215f6-9331-4a02-98d0-bd91b584fda9)
  )
  (junction (at 114.3 119.38) (diameter 0) (color 0 0 0 0)
    (uuid 87a05633-5954-4433-a3cb-66ec981a274f)
  )
  (junction (at 170.18 127) (diameter 0) (color 0 0 0 0)
    (uuid 9311531c-31d2-48f9-9873-2ed6e3a36efc)
  )
  (junction (at 124.46 45.72) (diameter 0) (color 0 0 0 0)
    (uuid bebff505-4d29-4bcf-b149-604be852b077)
  )
  (junction (at 95.25 66.04) (diameter 0) (color 0 0 0 0)
    (uuid de7c42f4-05a9-47ad-8572-4ad8ca6e5056)
  )
  (junction (at 170.18 119.38) (diameter 0) (color 0 0 0 0)
    (uuid e9eec096-3037-4fb7-a60c-15461190fe1a)
  )
  (junction (at 182.88 119.38) (diameter 0) (color 0 0 0 0)
    (uuid f2318874-93e3-4428-99c7-290a3363ba82)
  )
  (junction (at 170.18 66.04) (diameter 0) (color 0 0 0 0)
    (uuid fcb9b95c-b1d6-46f4-a1c2-4f297c25bb4e)
  )

  (no_connect (at 162.56 73.66) (uuid 7f238522-1858-4f09-84d8-2d2b7a1cffd7))
  (no_connect (at 162.56 127) (uuid d812bfa7-d072-42b1-b064-de10f09eea1b))

  (wire (pts (xy 162.56 119.38) (xy 165.1 119.38))
    (stroke (width 0) (type default))
    (uuid 07eead01-d988-429d-8aa0-3d4f781ba0b2)
  )
  (wire (pts (xy 114.3 66.04) (xy 139.7 66.04))
    (stroke (width 0) (type default))
    (uuid 0a06dcd5-f83b-4439-acc9-718c2261ec01)
  )
  (wire (pts (xy 142.24 121.92) (xy 139.7 121.92))
    (stroke (width 0) (type default))
    (uuid 11b594ca-e62a-4f85-868d-59acb8d9b260)
  )
  (wire (pts (xy 162.56 68.58) (xy 165.1 68.58))
    (stroke (width 0) (type default))
    (uuid 17d2a83e-f5c5-4034-bead-7ed466e683e2)
  )
  (wire (pts (xy 114.3 38.1) (xy 116.84 38.1))
    (stroke (width 0) (type default))
    (uuid 1a09ef36-31e9-4202-bd0a-eed554f5831a)
  )
  (wire (pts (xy 119.38 76.2) (xy 119.38 71.12))
    (stroke (width 0) (type default))
    (uuid 1ac18be9-eb02-4a62-b153-195803c73876)
  )
  (wire (pts (xy 165.1 124.46) (xy 165.1 127))
    (stroke (width 0) (type default))
    (uuid 1f3b1742-7d0c-443e-b0fb-9ed34e0f433a)
  )
  (wire (pts (xy 129.54 73.66) (xy 139.7 73.66))
    (stroke (width 0) (type default))
    (uuid 25ee81ab-8d64-4a13-8a69-93ec3dfcda90)
  )
  (wire (pts (xy 114.3 119.38) (xy 139.7 119.38))
    (stroke (width 0) (type default))
    (uuid 2a8f3682-86e0-40e4-afb3-86b602d06e79)
  )
  (wire (pts (xy 139.7 121.92) (xy 139.7 119.38))
    (stroke (width 0) (type default))
    (uuid 2e075661-4880-4b88-bf9d-e61b6cf0a829)
  )
  (wire (pts (xy 139.7 68.58) (xy 139.7 66.04))
    (stroke (width 0) (type default))
    (uuid 33719752-b79a-4cac-b101-3796058ffc0a)
  )
  (wire (pts (xy 165.1 119.38) (xy 170.18 119.38))
    (stroke (width 0) (type default))
    (uuid 3b0c1a2e-a0f3-4068-a03e-846a74f3dfe1)
  )
  (wire (pts (xy 92.71 66.04) (xy 92.71 119.38))
    (stroke (width 0) (type default))
    (uuid 3b961a0a-e0b8-440f-b04d-8760ad8ecc21)
  )
  (wire (pts (xy 124.46 45.72) (xy 124.46 48.26))
    (stroke (width 0) (type default))
    (uuid 45a301f9-629d-4b5b-99b0-0ccf6ae3a7a5)
  )
  (wire (pts (xy 129.54 76.2) (xy 129.54 73.66))
    (stroke (width 0) (type default))
    (uuid 5572b7d8-6290-4f02-9862-e07fd60ae110)
  )
  (wire (pts (xy 139.7 127) (xy 139.7 129.54))
    (stroke (width 0) (type default))
    (uuid 60ce928e-1cdb-4dee-ac7a-fa9e738fbf72)
  )
  (wire (pts (xy 165.1 66.04) (xy 170.18 66.04))
    (stroke (width 0) (type default))
    (uuid 705b70c5-f694-456a-819c-f0f75271ab39)
  )
  (wire (pts (xy 165.1 68.58) (xy 165.1 66.04))
    (stroke (width 0) (type default))
    (uuid 72140f8d-1bf6-4a2d-8837-3f2e882ed1a1)
  )
  (wire (pts (xy 114.3 45.72) (xy 124.46 45.72))
    (stroke (width 0) (type default))
    (uuid 77c276b2-684a-4389-88e0-0362886f489c)
  )
  (wire (pts (xy 170.18 119.38) (xy 182.88 119.38))
    (stroke (width 0) (type default))
    (uuid 787a0abb-ae0c-4fe7-bd83-f7a7eb350b96)
  )
  (wire (pts (xy 139.7 127) (xy 142.24 127))
    (stroke (width 0) (type default))
    (uuid 8b498c66-c89b-4244-a981-f76baf8c2bdd)
  )
  (wire (pts (xy 129.54 129.54) (xy 129.54 127))
    (stroke (width 0) (type default))
    (uuid 8ef5a3f9-3279-4de7-b45a-2648295af269)
  )
  (wire (pts (xy 165.1 121.92) (xy 165.1 119.38))
    (stroke (width 0) (type default))
    (uuid 907489fc-eb8a-4dc0-a0ac-8814e832d2d8)
  )
  (wire (pts (xy 129.54 127) (xy 139.7 127))
    (stroke (width 0) (type default))
    (uuid 928ca26f-a3ed-4fd4-951a-8b7d2a6a707e)
  )
  (wire (pts (xy 124.46 45.72) (xy 134.62 45.72))
    (stroke (width 0) (type default))
    (uuid 9e8ee341-5468-4213-ab7e-6a497235d0fa)
  )
  (wire (pts (xy 92.71 119.38) (xy 114.3 119.38))
    (stroke (width 0) (type default))
    (uuid abe84403-dcbf-4c85-a24d-d0c4f2767399)
  )
  (wire (pts (xy 134.62 38.1) (xy 132.08 38.1))
    (stroke (width 0) (type default))
    (uuid adbb1046-a61f-462c-91cb-54f844fc72ad)
  )
  (wire (pts (xy 119.38 124.46) (xy 142.24 124.46))
    (stroke (width 0) (type default))
    (uuid b33bccdb-af52-410a-a97d-005abcefceed)
  )
  (wire (pts (xy 165.1 71.12) (xy 165.1 73.66))
    (stroke (width 0) (type default))
    (uuid b98262c1-e827-454f-829b-e479fffae60f)
  )
  (wire (pts (xy 92.71 66.04) (xy 95.25 66.04))
    (stroke (width 0) (type default))
    (uuid c4f3a654-c469-447f-8ccc-5729e5adfaa8)
  )
  (wire (pts (xy 119.38 129.54) (xy 119.38 124.46))
    (stroke (width 0) (type default))
    (uuid c6b8cdf4-305f-4eb9-af65-1adb9e8dca91)
  )
  (wire (pts (xy 139.7 119.38) (xy 142.24 119.38))
    (stroke (width 0) (type default))
    (uuid c96b13f5-2827-4141-a116-56f7cd9de682)
  )
  (wire (pts (xy 95.25 66.04) (xy 114.3 66.04))
    (stroke (width 0) (type default))
    (uuid cea6154e-480d-4e41-817e-ab71c07ef64b)
  )
  (wire (pts (xy 162.56 124.46) (xy 165.1 124.46))
    (stroke (width 0) (type default))
    (uuid d1335c56-2947-4c85-8e26-828e09c1b267)
  )
  (wire (pts (xy 170.18 66.04) (xy 182.88 66.04))
    (stroke (width 0) (type default))
    (uuid d6c719f7-595c-4b29-b1d8-789ef5fb9e0d)
  )
  (wire (pts (xy 165.1 73.66) (xy 170.18 73.66))
    (stroke (width 0) (type default))
    (uuid d71638c4-6546-4fc3-b5fa-cf4f475ac80f)
  )
  (wire (pts (xy 165.1 127) (xy 170.18 127))
    (stroke (width 0) (type default))
    (uuid d71d6d33-0057-41f0-854f-a8b25de963c1)
  )
  (wire (pts (xy 134.62 35.56) (xy 134.62 38.1))
    (stroke (width 0) (type default))
    (uuid da37dd23-3ff7-4ec9-9652-665fd8e77657)
  )
  (wire (pts (xy 139.7 66.04) (xy 142.24 66.04))
    (stroke (width 0) (type default))
    (uuid de16a332-d2fa-45d8-88d8-86780f30d251)
  )
  (wire (pts (xy 114.3 35.56) (xy 114.3 38.1))
    (stroke (width 0) (type default))
    (uuid df185592-415f-4bed-b358-3d291a0041d5)
  )
  (wire (pts (xy 142.24 68.58) (xy 139.7 68.58))
    (stroke (width 0) (type default))
    (uuid e4280d36-e089-464e-96e7-d9686faa7622)
  )
  (wire (pts (xy 119.38 71.12) (xy 142.24 71.12))
    (stroke (width 0) (type default))
    (uuid e4aebe2c-716b-48a1-8c6d-aba01cc07e79)
  )
  (wire (pts (xy 162.56 121.92) (xy 165.1 121.92))
    (stroke (width 0) (type default))
    (uuid e5a47cec-716e-4b5e-948a-6b844ec68fd5)
  )
  (wire (pts (xy 139.7 73.66) (xy 142.24 73.66))
    (stroke (width 0) (type default))
    (uuid ec4d9161-e8db-451e-b51c-b560be830049)
  )
  (wire (pts (xy 162.56 71.12) (xy 165.1 71.12))
    (stroke (width 0) (type default))
    (uuid edcba567-9f54-494b-8c67-d2eb85906ab4)
  )
  (wire (pts (xy 139.7 73.66) (xy 139.7 76.2))
    (stroke (width 0) (type default))
    (uuid f5af4666-33e9-4795-b8c7-16e4706e0cef)
  )
  (wire (pts (xy 162.56 66.04) (xy 165.1 66.04))
    (stroke (width 0) (type default))
    (uuid ff3ef58e-0ab2-4228-a6c8-437ad143a38f)
  )

  (symbol (lib_id "power:GND") (at 124.46 48.26 0) (unit 1)
    (in_bom yes) (on_board yes) (dnp no)
    (uuid 02552ee0-c686-460f-8978-7820c0e90e2b)
    (property "Reference" "#PWR0508" (at 124.46 54.61 0)
      (effects (font (size 1.27 1.27)) hide)
    )
    (property "Value" "GND" (at 124.587 52.6542 0)
      (effects (font (size 1.27 1.27)))
    )
    (property "Footprint" "" (at 124.46 48.26 0)
      (effects (font (size 1.27 1.27)) hide)
    )
    (property "Datasheet" "" (at 124.46 48.26 0)
      (effects (font (size 1.27 1.27)) hide)
    )
    (pin "1" (uuid b3f5e71d-e302-41f6-97c6-b8c71bdfa080))
    (instances
      (project "pcb"
        (path "/ba41827b-f176-424d-b6d5-0b0e1ddda097/a00c2049-0a3f-4994-b4b1-e2d67645b8de"
          (reference "#PWR0508") (unit 1)
        )
      )
    )
  )

  (symbol (lib_id "symbols:+16V") (at 95.25 66.04 0) (unit 1)
    (in_bom yes) (on_board yes) (dnp no) (fields_autoplaced)
    (uuid 08465158-d774-47a1-81c6-d6e66a8415de)
    (property "Reference" "#PWR0501" (at 95.25 69.85 0)
      (effects (font (size 1.27 1.27)) hide)
    )
    (property "Value" "+16V" (at 95.25 60.96 0)
      (effects (font (size 1.27 1.27)))
    )
    (property "Footprint" "" (at 95.25 66.04 0)
      (effects (font (size 1.27 1.27)) hide)
    )
    (property "Datasheet" "" (at 95.25 66.04 0)
      (effects (font (size 1.27 1.27)) hide)
    )
    (pin "1" (uuid 5983ad8a-60d2-4dc1-9193-ef4e11f4d972))
    (instances
      (project "pcb"
        (path "/ba41827b-f176-424d-b6d5-0b0e1ddda097/a00c2049-0a3f-4994-b4b1-e2d67645b8de"
          (reference "#PWR0501") (unit 1)
        )
      )
    )
  )

  (symbol (lib_id "power:GND") (at 114.3 127 0) (unit 1)
    (in_bom yes) (on_board yes) (dnp no)
    (uuid 22975d35-b5a6-4b03-99bc-cae0f065815f)
    (property "Reference" "#PWR0505" (at 114.3 133.35 0)
      (effects (font (size 1.27 1.27)) hide)
    )
    (property "Value" "GND" (at 114.3 130.81 0)
      (effects (font (size 1.27 1.27)))
    )
    (property "Footprint" "" (at 114.3 127 0)
      (effects (font (size 1.27 1.27)) hide)
    )
    (property "Datasheet" "" (at 114.3 127 0)
      (effects (font (size 1.27 1.27)) hide)
    )
    (pin "1" (uuid a271eadc-233a-49ac-89c8-2259a400b8f0))
    (instances
      (project "pcb"
        (path "/ba41827b-f176-424d-b6d5-0b0e1ddda097/a00c2049-0a3f-4994-b4b1-e2d67645b8de"
          (reference "#PWR0505") (unit 1)
        )
      )
    )
  )

  (symbol (lib_id "power:GND") (at 119.38 83.82 0) (unit 1)
    (in_bom yes) (on_board yes) (dnp no)
    (uuid 34a73122-2f48-4cd1-9a68-6b5099caeb49)
    (property "Reference" "#PWR0506" (at 119.38 90.17 0)
      (effects (font (size 1.27 1.27)) hide)
    )
    (property "Value" "GND" (at 119.38 87.63 0)
      (effects (font (size 1.27 1.27)))
    )
    (property "Footprint" "" (at 119.38 83.82 0)
      (effects (font (size 1.27 1.27)) hide)
    )
    (property "Datasheet" "" (at 119.38 83.82 0)
      (effects (font (size 1.27 1.27)) hide)
    )
    (pin "1" (uuid f91a22a0-d080-4a5f-aa0a-f6ece231a3f3))
    (instances
      (project "pcb"
        (path "/ba41827b-f176-424d-b6d5-0b0e1ddda097/a00c2049-0a3f-4994-b4b1-e2d67645b8de"
          (reference "#PWR0506") (unit 1)
        )
      )
    )
  )

  (symbol (lib_id "Regulator_Linear:XC6206PxxxMR") (at 124.46 38.1 0) (unit 1)
    (in_bom yes) (on_board yes) (dnp no) (fields_autoplaced)
    (uuid 3a180171-93ae-46db-bc20-aed8a9a043f0)
    (property "Reference" "U501" (at 124.46 31.75 0)
      (effects (font (size 1.27 1.27)))
    )
    (property "Value" "XC6206P152MR" (at 124.46 34.29 0)
      (effects (font (size 1.27 1.27)))
    )
    (property "Footprint" "Package_TO_SOT_SMD:SOT-23-3" (at 124.46 32.385 0)
      (effects (font (size 1.27 1.27) italic) hide)
    )
    (property "Datasheet" "https://www.torexsemi.com/file/xc6206/XC6206.pdf" (at 124.46 38.1 0)
      (effects (font (size 1.27 1.27)) hide)
    )
    (pin "1" (uuid 95aabc38-e92c-47a6-b73c-90c5d9bae311))
    (pin "2" (uuid 600b3426-fba2-4c31-8c59-3b8ad45ead44))
    (pin "3" (uuid c85413d5-5bc3-4812-ab88-b782fbd42b53))
    (instances
      (project "pcb"
        (path "/ba41827b-f176-424d-b6d5-0b0e1ddda097/a00c2049-0a3f-4994-b4b1-e2d67645b8de"
          (reference "U501") (unit 1)
        )
      )
    )
  )

  (symbol (lib_id "power:GND") (at 152.4 132.08 0) (unit 1)
    (in_bom yes) (on_board yes) (dnp no)
    (uuid 3f043591-4e0a-423f-8db8-35662ab75c9c)
    (property "Reference" "#PWR0515" (at 152.4 138.43 0)
      (effects (font (size 1.27 1.27)) hide)
    )
    (property "Value" "GND" (at 152.4 135.89 0)
      (effects (font (size 1.27 1.27)))
    )
    (property "Footprint" "" (at 152.4 132.08 0)
      (effects (font (size 1.27 1.27)) hide)
    )
    (property "Datasheet" "" (at 152.4 132.08 0)
      (effects (font (size 1.27 1.27)) hide)
    )
    (pin "1" (uuid 78f4439a-40f6-4d3c-b85f-1e9d0c7475c9))
    (instances
      (project "pcb"
        (path "/ba41827b-f176-424d-b6d5-0b0e1ddda097/a00c2049-0a3f-4994-b4b1-e2d67645b8de"
          (reference "#PWR0515") (unit 1)
        )
      )
    )
  )

  (symbol (lib_id "Device:C") (at 114.3 123.19 0) (mirror y) (unit 1)
    (in_bom yes) (on_board yes) (dnp no)
    (uuid 419d159b-f49a-424e-9272-ba9ad051cfa8)
    (property "Reference" "C504" (at 111.379 122.0216 0)
      (effects (font (size 1.27 1.27)) (justify left))
    )
    (property "Value" "10uF" (at 111.379 124.333 0)
      (effects (font (size 1.27 1.27)) (justify left))
    )
    (property "Footprint" "Capacitor_SMD:C_0805_2012Metric" (at 113.3348 127 0)
      (effects (font (size 1.27 1.27)) hide)
    )
    (property "Datasheet" "~" (at 114.3 123.19 0)
      (effects (font (size 1.27 1.27)) hide)
    )
    (pin "1" (uuid 7b02ad07-d3ed-4195-8092-7c1f8fc4fc66))
    (pin "2" (uuid d1d68ae2-fa09-424e-9b42-7b6afbb05883))
    (instances
      (project "pcb"
        (path "/ba41827b-f176-424d-b6d5-0b0e1ddda097/a00c2049-0a3f-4994-b4b1-e2d67645b8de"
          (reference "C504") (unit 1)
        )
      )
    )
  )

  (symbol (lib_id "power:GND") (at 170.18 134.62 0) (mirror y) (unit 1)
    (in_bom yes) (on_board yes) (dnp no)
    (uuid 4383875f-df94-4f5e-b4e8-b95447acda42)
    (property "Reference" "#PWR0517" (at 170.18 140.97 0)
      (effects (font (size 1.27 1.27)) hide)
    )
    (property "Value" "GND" (at 170.18 138.43 0)
      (effects (font (size 1.27 1.27)))
    )
    (property "Footprint" "" (at 170.18 134.62 0)
      (effects (font (size 1.27 1.27)) hide)
    )
    (property "Datasheet" "" (at 170.18 134.62 0)
      (effects (font (size 1.27 1.27)) hide)
    )
    (pin "1" (uuid 75eb1399-2d14-4141-aff3-d6b40c42a610))
    (instances
      (project "pcb"
        (path "/ba41827b-f176-424d-b6d5-0b0e1ddda097/a00c2049-0a3f-4994-b4b1-e2d67645b8de"
          (reference "#PWR0517") (unit 1)
        )
      )
    )
  )

  (symbol (lib_id "Regulator_Linear:LT3045xMSE") (at 152.4 68.58 0) (unit 1)
    (in_bom yes) (on_board yes) (dnp no) (fields_autoplaced)
    (uuid 47e6a70d-e4da-4fe2-b62c-d66632e76bce)
    (property "Reference" "U502" (at 152.4 58.42 0)
      (effects (font (size 1.27 1.27)))
    )
    (property "Value" "LT3045xMSE" (at 152.4 60.96 0)
      (effects (font (size 1.27 1.27)))
    )
    (property "Footprint" "Package_SO:MSOP-12-1EP_3x4mm_P0.65mm_EP1.65x2.85mm" (at 152.4 60.325 0)
      (effects (font (size 1.27 1.27)) hide)
    )
    (property "Datasheet" "https://www.analog.com/media/en/technical-documentation/data-sheets/3045fa.pdf" (at 152.4 68.58 0)
      (effects (font (size 1.27 1.27)) hide)
    )
    (pin "1" (uuid 85de5541-3daa-4b9a-b04d-bf87077ee6d9))
    (pin "10" (uuid f81720ca-ee94-4744-b109-b8f3272aa0d2))
    (pin "11" (uuid 1927a9b0-f9ca-40a4-a19f-9e861f458ab9))
    (pin "12" (uuid 82aa1cdf-48a7-4589-bdee-2ef8d1881882))
    (pin "13" (uuid 74d45c28-c288-4ced-8567-80a3b4c7ae31))
    (pin "2" (uuid e696327b-d127-4ac7-9abd-885b8179e71d))
    (pin "3" (uuid 70927cf6-e23f-46c4-8e51-1d672e0cd990))
    (pin "4" (uuid 5a4f0c47-8f1f-4369-abcf-3fd5944154fa))
    (pin "5" (uuid fed3123d-dfe1-4bca-aa63-865600438323))
    (pin "6" (uuid 2d629f9f-97d9-449f-87d0-67c19afceea3))
    (pin "7" (uuid 5dc9476b-ef33-4ce6-9f07-bbd77ab6c8d1))
    (pin "8" (uuid dd2ea0a2-f14d-4f91-8f75-58a28ea7193f))
    (pin "9" (uuid 1df7855d-cced-4532-897e-a74add95a922))
    (instances
      (project "pcb"
        (path "/ba41827b-f176-424d-b6d5-0b0e1ddda097/a00c2049-0a3f-4994-b4b1-e2d67645b8de"
          (reference "U502") (unit 1)
        )
      )
    )
  )

  (symbol (lib_id "symbols:+15VR") (at 182.88 119.38 0) (unit 1)
    (in_bom yes) (on_board yes) (dnp no) (fields_autoplaced)
    (uuid 50963d84-9cbc-46ce-a156-40bc9440fcdf)
    (property "Reference" "#PWR0520" (at 182.88 123.19 0)
      (effects (font (size 1.27 1.27)) hide)
    )
    (property "Value" "+15VR" (at 182.88 114.3 0)
      (effects (font (size 1.27 1.27)))
    )
    (property "Footprint" "" (at 182.88 119.38 0)
      (effects (font (size 1.27 1.27)) hide)
    )
    (property "Datasheet" "" (at 182.88 119.38 0)
      (effects (font (size 1.27 1.27)) hide)
    )
    (pin "1" (uuid 9abfe291-0c9c-463a-8a65-4a60816d105c))
    (instances
      (project "pcb"
        (path "/ba41827b-f176-424d-b6d5-0b0e1ddda097/a00c2049-0a3f-4994-b4b1-e2d67645b8de"
          (reference "#PWR0520") (unit 1)
        )
      )
    )
  )

  (symbol (lib_id "Device:C") (at 129.54 133.35 0) (unit 1)
    (in_bom yes) (on_board yes) (dnp no)
    (uuid 519bb362-d825-4dd3-b12e-53c4ccce6ff9)
    (property "Reference" "C506" (at 132.461 132.1816 0)
      (effects (font (size 1.27 1.27)) (justify left))
    )
    (property "Value" "4.7uF" (at 132.461 134.493 0)
      (effects (font (size 1.27 1.27)) (justify left))
    )
    (property "Footprint" "Capacitor_SMD:C_0402_1005Metric" (at 130.5052 137.16 0)
      (effects (font (size 1.27 1.27)) hide)
    )
    (property "Datasheet" "~" (at 129.54 133.35 0)
      (effects (font (size 1.27 1.27)) hide)
    )
    (pin "1" (uuid 50dcb913-a0ae-4a6b-bdc7-d8287ed62c4a))
    (pin "2" (uuid 0ed9a5ac-8615-4c2c-9d52-70296b8b68b3))
    (instances
      (project "pcb"
        (path "/ba41827b-f176-424d-b6d5-0b0e1ddda097/a00c2049-0a3f-4994-b4b1-e2d67645b8de"
          (reference "C506") (unit 1)
        )
      )
    )
  )

  (symbol (lib_id "power:GND") (at 92.71 127 0) (unit 1)
    (in_bom yes) (on_board yes) (dnp no)
    (uuid 5f18caa5-0cba-452d-95f3-4feee2faf84d)
    (property "Reference" "#PWR0616" (at 92.71 133.35 0)
      (effects (font (size 1.27 1.27)) hide)
    )
    (property "Value" "GND" (at 92.71 130.81 0)
      (effects (font (size 1.27 1.27)))
    )
    (property "Footprint" "" (at 92.71 127 0)
      (effects (font (size 1.27 1.27)) hide)
    )
    (property "Datasheet" "" (at 92.71 127 0)
      (effects (font (size 1.27 1.27)) hide)
    )
    (pin "1" (uuid 37e6c469-be8e-49a8-9ac5-746f206d2136))
    (instances
      (project "pcb"
        (path "/ba41827b-f176-424d-b6d5-0b0e1ddda097/a00c2049-0a3f-4994-b4b1-e2d67645b8de"
          (reference "#PWR0616") (unit 1)
        )
      )
    )
  )

  (symbol (lib_id "Device:C") (at 114.3 41.91 0) (mirror y) (unit 1)
    (in_bom yes) (on_board yes) (dnp no)
    (uuid 6089df4f-719f-4436-a55a-d72f57648fe0)
    (property "Reference" "C502" (at 109.22 40.64 0)
      (effects (font (size 1.27 1.27)))
    )
    (property "Value" "1uF" (at 109.22 43.18 0)
      (effects (font (size 1.27 1.27)))
    )
    (property "Footprint" "Capacitor_SMD:C_0402_1005Metric" (at 113.3348 45.72 0)
      (effects (font (size 1.27 1.27)) hide)
    )
    (property "Datasheet" "~" (at 114.3 41.91 0)
      (effects (font (size 1.27 1.27)) hide)
    )
    (pin "1" (uuid 7d7b0514-9858-4a2f-bacb-284134ae3dd1))
    (pin "2" (uuid ec257561-6cdf-4ac5-abd2-9a56c10d5633))
    (instances
      (project "pcb"
        (path "/ba41827b-f176-424d-b6d5-0b0e1ddda097/a00c2049-0a3f-4994-b4b1-e2d67645b8de"
          (reference "C502") (unit 1)
        )
      )
    )
  )

  (symbol (lib_id "Device:R") (at 170.18 130.81 0) (unit 1)
    (in_bom yes) (on_board yes) (dnp no)
    (uuid 6185d3fd-fe25-4ead-bc32-9127a052abbc)
    (property "Reference" "R508" (at 171.958 129.6416 0)
      (effects (font (size 1.27 1.27)) (justify left))
    )
    (property "Value" "22K 1%" (at 171.958 131.953 0)
      (effects (font (size 1.27 1.27)) (justify left))
    )
    (property "Footprint" "Resistor_SMD:R_0402_1005Metric" (at 168.402 130.81 90)
      (effects (font (size 1.27 1.27)) hide)
    )
    (property "Datasheet" "~" (at 170.18 130.81 0)
      (effects (font (size 1.27 1.27)) hide)
    )
    (pin "1" (uuid 9e5634ff-d5a4-4d0a-8f50-a1aa21639d1e))
    (pin "2" (uuid 688a79c6-5b2b-4c98-bde3-042590430e1b))
    (instances
      (project "pcb"
        (path "/ba41827b-f176-424d-b6d5-0b0e1ddda097/a00c2049-0a3f-4994-b4b1-e2d67645b8de"
          (reference "R508") (unit 1)
        )
      )
    )
  )

  (symbol (lib_id "power:GND") (at 139.7 137.16 0) (unit 1)
    (in_bom yes) (on_board yes) (dnp no)
    (uuid 62a41d72-7f77-45e1-ac14-7193c7288d3b)
    (property "Reference" "#PWR0513" (at 139.7 143.51 0)
      (effects (font (size 1.27 1.27)) hide)
    )
    (property "Value" "GND" (at 139.7 140.97 0)
      (effects (font (size 1.27 1.27)))
    )
    (property "Footprint" "" (at 139.7 137.16 0)
      (effects (font (size 1.27 1.27)) hide)
    )
    (property "Datasheet" "" (at 139.7 137.16 0)
      (effects (font (size 1.27 1.27)) hide)
    )
    (pin "1" (uuid 274235c0-97c4-4739-81d9-58105cd9330b))
    (instances
      (project "pcb"
        (path "/ba41827b-f176-424d-b6d5-0b0e1ddda097/a00c2049-0a3f-4994-b4b1-e2d67645b8de"
          (reference "#PWR0513") (unit 1)
        )
      )
    )
  )

  (symbol (lib_id "Device:C") (at 182.88 69.85 0) (unit 1)
    (in_bom yes) (on_board yes) (dnp no)
    (uuid 63f47422-31ef-4801-9bf0-97429ce8b72f)
    (property "Reference" "C508" (at 185.801 68.6816 0)
      (effects (font (size 1.27 1.27)) (justify left))
    )
    (property "Value" "22uF 25V" (at 185.801 70.993 0)
      (effects (font (size 1.27 1.27)) (justify left))
    )
    (property "Footprint" "Capacitor_SMD:C_0805_2012Metric" (at 183.8452 73.66 0)
      (effects (font (size 1.27 1.27)) hide)
    )
    (property "Datasheet" "~" (at 182.88 69.85 0)
      (effects (font (size 1.27 1.27)) hide)
    )
    (pin "1" (uuid 1cedae8b-b6f9-4882-9530-a2ffb2433bd0))
    (pin "2" (uuid 98ca3976-5268-4bd5-ae74-719087c26e15))
    (instances
      (project "pcb"
        (path "/ba41827b-f176-424d-b6d5-0b0e1ddda097/a00c2049-0a3f-4994-b4b1-e2d67645b8de"
          (reference "C508") (unit 1)
        )
      )
    )
  )

  (symbol (lib_id "Device:C") (at 182.88 123.19 0) (unit 1)
    (in_bom yes) (on_board yes) (dnp no)
    (uuid 672d37dd-7234-4029-85bc-ccab3af558cb)
    (property "Reference" "C509" (at 185.801 122.0216 0)
      (effects (font (size 1.27 1.27)) (justify left))
    )
    (property "Value" "22uF 25V" (at 185.801 124.333 0)
      (effects (font (size 1.27 1.27)) (justify left))
    )
    (property "Footprint" "Capacitor_SMD:C_0805_2012Metric" (at 183.8452 127 0)
      (effects (font (size 1.27 1.27)) hide)
    )
    (property "Datasheet" "~" (at 182.88 123.19 0)
      (effects (font (size 1.27 1.27)) hide)
    )
    (pin "1" (uuid 324ee5bc-8a3b-4ae8-9137-b7747ac7901b))
    (pin "2" (uuid bf5850d9-6cda-4c46-b249-732640517deb))
    (instances
      (project "pcb"
        (path "/ba41827b-f176-424d-b6d5-0b0e1ddda097/a00c2049-0a3f-4994-b4b1-e2d67645b8de"
          (reference "C509") (unit 1)
        )
      )
    )
  )

  (symbol (lib_id "Device:R") (at 170.18 77.47 0) (unit 1)
    (in_bom yes) (on_board yes) (dnp no)
    (uuid 6a02ef40-2479-4d86-b0af-08e718ea4e43)
    (property "Reference" "R506" (at 171.958 76.3016 0)
      (effects (font (size 1.27 1.27)) (justify left))
    )
    (property "Value" "22K 1%" (at 171.958 78.613 0)
      (effects (font (size 1.27 1.27)) (justify left))
    )
    (property "Footprint" "Resistor_SMD:R_0402_1005Metric" (at 168.402 77.47 90)
      (effects (font (size 1.27 1.27)) hide)
    )
    (property "Datasheet" "~" (at 170.18 77.47 0)
      (effects (font (size 1.27 1.27)) hide)
    )
    (pin "1" (uuid 37f3dc7d-a8aa-421b-9856-97fd61477000))
    (pin "2" (uuid c2a43efc-1483-4ad3-9de1-d36e9aa94fdf))
    (instances
      (project "pcb"
        (path "/ba41827b-f176-424d-b6d5-0b0e1ddda097/a00c2049-0a3f-4994-b4b1-e2d67645b8de"
          (reference "R506") (unit 1)
        )
      )
    )
  )

  (symbol (lib_id "Device:C") (at 129.54 80.01 0) (unit 1)
    (in_bom yes) (on_board yes) (dnp no)
    (uuid 6d439d0d-1f5d-4ff7-be28-1671507213d7)
    (property "Reference" "C505" (at 132.461 78.8416 0)
      (effects (font (size 1.27 1.27)) (justify left))
    )
    (property "Value" "4.7uF" (at 132.461 81.153 0)
      (effects (font (size 1.27 1.27)) (justify left))
    )
    (property "Footprint" "Capacitor_SMD:C_0402_1005Metric" (at 130.5052 83.82 0)
      (effects (font (size 1.27 1.27)) hide)
    )
    (property "Datasheet" "~" (at 129.54 80.01 0)
      (effects (font (size 1.27 1.27)) hide)
    )
    (pin "1" (uuid cd5f1313-841e-40be-9dd8-db1de85b73f4))
    (pin "2" (uuid e6466583-90d6-4bde-afc3-e8fdd2dc1c30))
    (instances
      (project "pcb"
        (path "/ba41827b-f176-424d-b6d5-0b0e1ddda097/a00c2049-0a3f-4994-b4b1-e2d67645b8de"
          (reference "C505") (unit 1)
        )
      )
    )
  )

  (symbol (lib_id "Device:R") (at 139.7 133.35 0) (unit 1)
    (in_bom yes) (on_board yes) (dnp no)
    (uuid 6efd6ce6-d910-4736-a573-dd95a757de8a)
    (property "Reference" "R504" (at 141.478 132.1816 0)
      (effects (font (size 1.27 1.27)) (justify left))
    )
    (property "Value" "30.1K" (at 141.478 134.493 0)
      (effects (font (size 1.27 1.27)) (justify left))
    )
    (property "Footprint" "Resistor_SMD:R_0402_1005Metric" (at 137.922 133.35 90)
      (effects (font (size 1.27 1.27)) hide)
    )
    (property "Datasheet" "~" (at 139.7 133.35 0)
      (effects (font (size 1.27 1.27)) hide)
    )
    (pin "1" (uuid 4244e4ea-0120-42d9-bd5f-6492834c34b8))
    (pin "2" (uuid a0da876e-539c-465b-8ef7-814af1b0048f))
    (instances
      (project "pcb"
        (path "/ba41827b-f176-424d-b6d5-0b0e1ddda097/a00c2049-0a3f-4994-b4b1-e2d67645b8de"
          (reference "R504") (unit 1)
        )
      )
    )
  )

  (symbol (lib_id "power:GND") (at 114.3 73.66 0) (unit 1)
    (in_bom yes) (on_board yes) (dnp no)
    (uuid 8f1f4d8c-c923-4007-aa0e-d515786dec26)
    (property "Reference" "#PWR0504" (at 114.3 80.01 0)
      (effects (font (size 1.27 1.27)) hide)
    )
    (property "Value" "GND" (at 114.3 77.47 0)
      (effects (font (size 1.27 1.27)))
    )
    (property "Footprint" "" (at 114.3 73.66 0)
      (effects (font (size 1.27 1.27)) hide)
    )
    (property "Datasheet" "" (at 114.3 73.66 0)
      (effects (font (size 1.27 1.27)) hide)
    )
    (pin "1" (uuid 6e59d578-4c20-4c3d-b65f-e76defb48e95))
    (instances
      (project "pcb"
        (path "/ba41827b-f176-424d-b6d5-0b0e1ddda097/a00c2049-0a3f-4994-b4b1-e2d67645b8de"
          (reference "#PWR0504") (unit 1)
        )
      )
    )
  )

  (symbol (lib_id "power:GND") (at 182.88 127 0) (mirror y) (unit 1)
    (in_bom yes) (on_board yes) (dnp no)
    (uuid 91a059d8-fe8b-41fd-b678-7ef84f56c120)
    (property "Reference" "#PWR0521" (at 182.88 133.35 0)
      (effects (font (size 1.27 1.27)) hide)
    )
    (property "Value" "GND" (at 182.88 130.81 0)
      (effects (font (size 1.27 1.27)))
    )
    (property "Footprint" "" (at 182.88 127 0)
      (effects (font (size 1.27 1.27)) hide)
    )
    (property "Datasheet" "" (at 182.88 127 0)
      (effects (font (size 1.27 1.27)) hide)
    )
    (pin "1" (uuid 94b375e2-34a2-447c-8b52-03bca1888974))
    (instances
      (project "pcb"
        (path "/ba41827b-f176-424d-b6d5-0b0e1ddda097/a00c2049-0a3f-4994-b4b1-e2d67645b8de"
          (reference "#PWR0521") (unit 1)
        )
      )
    )
  )

  (symbol (lib_id "power:GND") (at 182.88 73.66 0) (mirror y) (unit 1)
    (in_bom yes) (on_board yes) (dnp no)
    (uuid 92416427-7bf2-4b01-9750-53a1fcd7a7f5)
    (property "Reference" "#PWR0519" (at 182.88 80.01 0)
      (effects (font (size 1.27 1.27)) hide)
    )
    (property "Value" "GND" (at 182.88 77.47 0)
      (effects (font (size 1.27 1.27)))
    )
    (property "Footprint" "" (at 182.88 73.66 0)
      (effects (font (size 1.27 1.27)) hide)
    )
    (property "Datasheet" "" (at 182.88 73.66 0)
      (effects (font (size 1.27 1.27)) hide)
    )
    (pin "1" (uuid 06fa9423-34f1-4fd8-81bc-b7a714939f98))
    (instances
      (project "pcb"
        (path "/ba41827b-f176-424d-b6d5-0b0e1ddda097/a00c2049-0a3f-4994-b4b1-e2d67645b8de"
          (reference "#PWR0519") (unit 1)
        )
      )
    )
  )

  (symbol (lib_id "symbols:+15VL") (at 182.88 66.04 0) (unit 1)
    (in_bom yes) (on_board yes) (dnp no) (fields_autoplaced)
    (uuid a1c75559-c2be-49fb-9733-53ed4817b7c4)
    (property "Reference" "#PWR0518" (at 182.88 69.85 0)
      (effects (font (size 1.27 1.27)) hide)
    )
    (property "Value" "+15VL" (at 182.88 60.96 0)
      (effects (font (size 1.27 1.27)))
    )
    (property "Footprint" "" (at 182.88 66.04 0)
      (effects (font (size 1.27 1.27)) hide)
    )
    (property "Datasheet" "" (at 182.88 66.04 0)
      (effects (font (size 1.27 1.27)) hide)
    )
    (pin "1" (uuid 1e932bf6-2087-4f21-902c-f37a14ef1b1c))
    (instances
      (project "pcb"
        (path "/ba41827b-f176-424d-b6d5-0b0e1ddda097/a00c2049-0a3f-4994-b4b1-e2d67645b8de"
          (reference "#PWR0518") (unit 1)
        )
      )
    )
  )

  (symbol (lib_id "power:+3V3") (at 114.3 35.56 0) (unit 1)
    (in_bom yes) (on_board yes) (dnp no)
    (uuid a3f5773a-efed-48a5-a065-9e8610f3ba21)
    (property "Reference" "#PWR?" (at 114.3 39.37 0)
      (effects (font (size 1.27 1.27)) hide)
    )
    (property "Value" "+3V3" (at 114.3 31.75 0)
      (effects (font (size 1.27 1.27)))
    )
    (property "Footprint" "" (at 114.3 35.56 0)
      (effects (font (size 1.27 1.27)) hide)
    )
    (property "Datasheet" "" (at 114.3 35.56 0)
      (effects (font (size 1.27 1.27)) hide)
    )
    (pin "1" (uuid 510d038c-6562-4962-a79b-20eb95eb3506))
    (instances
      (project "pcb"
        (path "/ba41827b-f176-424d-b6d5-0b0e1ddda097/d386a9bf-0103-410c-b6e1-cdc61e904cc1"
          (reference "#PWR?") (unit 1)
        )
        (path "/ba41827b-f176-424d-b6d5-0b0e1ddda097/28025b55-6a64-43e1-9d20-34020d299147"
          (reference "#PWR?") (unit 1)
        )
        (path "/ba41827b-f176-424d-b6d5-0b0e1ddda097/a00c2049-0a3f-4994-b4b1-e2d67645b8de"
          (reference "#PWR0503") (unit 1)
        )
      )
    )
  )

  (symbol (lib_id "Device:C") (at 134.62 41.91 0) (unit 1)
    (in_bom yes) (on_board yes) (dnp no)
    (uuid ae40f94a-ee0f-4f3f-9b39-830bb986a354)
    (property "Reference" "C507" (at 139.7 40.64 0)
      (effects (font (size 1.27 1.27)))
    )
    (property "Value" "1uF" (at 139.7 43.18 0)
      (effects (font (size 1.27 1.27)))
    )
    (property "Footprint" "Capacitor_SMD:C_0402_1005Metric" (at 135.5852 45.72 0)
      (effects (font (size 1.27 1.27)) hide)
    )
    (property "Datasheet" "~" (at 134.62 41.91 0)
      (effects (font (size 1.27 1.27)) hide)
    )
    (pin "1" (uuid 97c7d507-1246-4e3e-bd15-5adc85c9bfe8))
    (pin "2" (uuid 2748453c-fb2f-4494-b0f5-c44230b32ea9))
    (instances
      (project "pcb"
        (path "/ba41827b-f176-424d-b6d5-0b0e1ddda097/a00c2049-0a3f-4994-b4b1-e2d67645b8de"
          (reference "C507") (unit 1)
        )
      )
    )
  )

  (symbol (lib_id "power:GND") (at 152.4 78.74 0) (unit 1)
    (in_bom yes) (on_board yes) (dnp no)
    (uuid b73b5788-7793-4013-8e98-aedb98501f50)
    (property "Reference" "#PWR0514" (at 152.4 85.09 0)
      (effects (font (size 1.27 1.27)) hide)
    )
    (property "Value" "GND" (at 152.4 82.55 0)
      (effects (font (size 1.27 1.27)))
    )
    (property "Footprint" "" (at 152.4 78.74 0)
      (effects (font (size 1.27 1.27)) hide)
    )
    (property "Datasheet" "" (at 152.4 78.74 0)
      (effects (font (size 1.27 1.27)) hide)
    )
    (pin "1" (uuid 4ac778da-1d95-4198-ae67-601b9463fc57))
    (instances
      (project "pcb"
        (path "/ba41827b-f176-424d-b6d5-0b0e1ddda097/a00c2049-0a3f-4994-b4b1-e2d67645b8de"
          (reference "#PWR0514") (unit 1)
        )
      )
    )
  )

  (symbol (lib_id "power:GND") (at 170.18 81.28 0) (mirror y) (unit 1)
    (in_bom yes) (on_board yes) (dnp no)
    (uuid b95d4665-5704-4fcd-9c73-cbbc9a4205a7)
    (property "Reference" "#PWR0516" (at 170.18 87.63 0)
      (effects (font (size 1.27 1.27)) hide)
    )
    (property "Value" "GND" (at 170.18 85.09 0)
      (effects (font (size 1.27 1.27)))
    )
    (property "Footprint" "" (at 170.18 81.28 0)
      (effects (font (size 1.27 1.27)) hide)
    )
    (property "Datasheet" "" (at 170.18 81.28 0)
      (effects (font (size 1.27 1.27)) hide)
    )
    (pin "1" (uuid 6019be8e-1af4-48ec-9c68-8250bfbb4e43))
    (instances
      (project "pcb"
        (path "/ba41827b-f176-424d-b6d5-0b0e1ddda097/a00c2049-0a3f-4994-b4b1-e2d67645b8de"
          (reference "#PWR0516") (unit 1)
        )
      )
    )
  )

  (symbol (lib_id "Device:R") (at 119.38 133.35 0) (unit 1)
    (in_bom yes) (on_board yes) (dnp no)
    (uuid c08c1cfc-b93a-4d56-8992-dec81cbfc538)
    (property "Reference" "R502" (at 121.158 132.1816 0)
      (effects (font (size 1.27 1.27)) (justify left))
    )
    (property "Value" "249R" (at 121.158 134.493 0)
      (effects (font (size 1.27 1.27)) (justify left))
    )
    (property "Footprint" "Resistor_SMD:R_0402_1005Metric" (at 117.602 133.35 90)
      (effects (font (size 1.27 1.27)) hide)
    )
    (property "Datasheet" "~" (at 119.38 133.35 0)
      (effects (font (size 1.27 1.27)) hide)
    )
    (pin "1" (uuid 6d44219c-485b-4a41-8ec8-ca4ed4287ffe))
    (pin "2" (uuid e0cc82f5-d0a2-45fa-b46f-1b6e6c294fd7))
    (instances
      (project "pcb"
        (path "/ba41827b-f176-424d-b6d5-0b0e1ddda097/a00c2049-0a3f-4994-b4b1-e2d67645b8de"
          (reference "R502") (unit 1)
        )
      )
    )
  )

  (symbol (lib_id "power:GND") (at 119.38 137.16 0) (unit 1)
    (in_bom yes) (on_board yes) (dnp no)
    (uuid c136f16a-49e4-4703-be31-ee3361bf14f4)
    (property "Reference" "#PWR0507" (at 119.38 143.51 0)
      (effects (font (size 1.27 1.27)) hide)
    )
    (property "Value" "GND" (at 119.38 140.97 0)
      (effects (font (size 1.27 1.27)))
    )
    (property "Footprint" "" (at 119.38 137.16 0)
      (effects (font (size 1.27 1.27)) hide)
    )
    (property "Datasheet" "" (at 119.38 137.16 0)
      (effects (font (size 1.27 1.27)) hide)
    )
    (pin "1" (uuid 47ba1c97-2757-4ef5-9f71-653f256d9530))
    (instances
      (project "pcb"
        (path "/ba41827b-f176-424d-b6d5-0b0e1ddda097/a00c2049-0a3f-4994-b4b1-e2d67645b8de"
          (reference "#PWR0507") (unit 1)
        )
      )
    )
  )

  (symbol (lib_id "Device:R") (at 170.18 123.19 0) (unit 1)
    (in_bom yes) (on_board yes) (dnp no)
    (uuid c2fa5d0e-9793-4132-b878-2a16879b41fe)
    (property "Reference" "R507" (at 171.958 122.0216 0)
      (effects (font (size 1.27 1.27)) (justify left))
    )
    (property "Value" "270K 1%" (at 171.958 124.333 0)
      (effects (font (size 1.27 1.27)) (justify left))
    )
    (property "Footprint" "Resistor_SMD:R_0402_1005Metric" (at 168.402 123.19 90)
      (effects (font (size 1.27 1.27)) hide)
    )
    (property "Datasheet" "~" (at 170.18 123.19 0)
      (effects (font (size 1.27 1.27)) hide)
    )
    (pin "1" (uuid 90c347e1-e52d-4de6-92c3-f75ef89dece1))
    (pin "2" (uuid 20c5d37e-d6c3-4a0a-bb37-54213706cd75))
    (instances
      (project "pcb"
        (path "/ba41827b-f176-424d-b6d5-0b0e1ddda097/a00c2049-0a3f-4994-b4b1-e2d67645b8de"
          (reference "R507") (unit 1)
        )
      )
    )
  )

  (symbol (lib_id "power:GND") (at 129.54 137.16 0) (unit 1)
    (in_bom yes) (on_board yes) (dnp no)
    (uuid d5045fd5-9fe9-4c73-8ed5-659d042665cd)
    (property "Reference" "#PWR0510" (at 129.54 143.51 0)
      (effects (font (size 1.27 1.27)) hide)
    )
    (property "Value" "GND" (at 129.54 140.97 0)
      (effects (font (size 1.27 1.27)))
    )
    (property "Footprint" "" (at 129.54 137.16 0)
      (effects (font (size 1.27 1.27)) hide)
    )
    (property "Datasheet" "" (at 129.54 137.16 0)
      (effects (font (size 1.27 1.27)) hide)
    )
    (pin "1" (uuid fd898208-b3e4-4980-9cbd-41c1e2b90c4f))
    (instances
      (project "pcb"
        (path "/ba41827b-f176-424d-b6d5-0b0e1ddda097/a00c2049-0a3f-4994-b4b1-e2d67645b8de"
          (reference "#PWR0510") (unit 1)
        )
      )
    )
  )

  (symbol (lib_id "Regulator_Linear:LT3045xMSE") (at 152.4 121.92 0) (unit 1)
    (in_bom yes) (on_board yes) (dnp no) (fields_autoplaced)
    (uuid d63acc83-12a3-4389-828f-ed51b20490b3)
    (property "Reference" "U503" (at 152.4 111.76 0)
      (effects (font (size 1.27 1.27)))
    )
    (property "Value" "LT3045xMSE" (at 152.4 114.3 0)
      (effects (font (size 1.27 1.27)))
    )
    (property "Footprint" "Package_SO:MSOP-12-1EP_3x4mm_P0.65mm_EP1.65x2.85mm" (at 152.4 113.665 0)
      (effects (font (size 1.27 1.27)) hide)
    )
    (property "Datasheet" "https://www.analog.com/media/en/technical-documentation/data-sheets/3045fa.pdf" (at 152.4 121.92 0)
      (effects (font (size 1.27 1.27)) hide)
    )
    (pin "1" (uuid 38765509-96b2-4a57-8b67-769d05592760))
    (pin "10" (uuid 25c207ee-8c2f-4b8c-8a8e-423fbbfae086))
    (pin "11" (uuid 0c670698-6dcb-4f99-965f-259f15983482))
    (pin "12" (uuid 0233a87e-c2c6-4dc4-9fab-db35bbe475bf))
    (pin "13" (uuid f217874d-70b7-4de4-9e05-ce1a375ef457))
    (pin "2" (uuid 8795ec65-a229-4971-9fa9-21f3014ae3d3))
    (pin "3" (uuid a836b9fe-3fa8-4db7-9ca6-20ceadff3bed))
    (pin "4" (uuid c95cea03-6fa5-4971-8a8d-1e1bd91b49e0))
    (pin "5" (uuid 0c039553-edd3-4c40-bb25-ba04e7fb6dfa))
    (pin "6" (uuid 656578f7-fae2-4e3b-9584-0663a8021b91))
    (pin "7" (uuid 36ea8ba6-9853-4656-a8b6-0fee3c1ff394))
    (pin "8" (uuid 6230a9ce-efdf-4a3d-a0d3-523955bf77b0))
    (pin "9" (uuid efaabe33-bb62-49f2-9dbb-ab95243d2b18))
    (instances
      (project "pcb"
        (path "/ba41827b-f176-424d-b6d5-0b0e1ddda097/a00c2049-0a3f-4994-b4b1-e2d67645b8de"
          (reference "U503") (unit 1)
        )
      )
    )
  )

  (symbol (lib_id "power:+1V8") (at 134.62 35.56 0) (unit 1)
    (in_bom yes) (on_board yes) (dnp no) (fields_autoplaced)
    (uuid da7f0d0e-7832-43d2-98ab-5a3eb1a94462)
    (property "Reference" "#PWR?" (at 134.62 39.37 0)
      (effects (font (size 1.27 1.27)) hide)
    )
    (property "Value" "+1V8" (at 134.62 31.75 0)
      (effects (font (size 1.27 1.27)))
    )
    (property "Footprint" "" (at 134.62 35.56 0)
      (effects (font (size 1.27 1.27)) hide)
    )
    (property "Datasheet" "" (at 134.62 35.56 0)
      (effects (font (size 1.27 1.27)) hide)
    )
    (pin "1" (uuid 6e71551f-7baf-4355-b899-2ed0d3629002))
    (instances
      (project "pcb"
        (path "/ba41827b-f176-424d-b6d5-0b0e1ddda097/bbc4a8ed-000d-45bd-b682-5f5fc521899f"
          (reference "#PWR?") (unit 1)
        )
        (path "/ba41827b-f176-424d-b6d5-0b0e1ddda097/28025b55-6a64-43e1-9d20-34020d299147"
          (reference "#PWR?") (unit 1)
        )
        (path "/ba41827b-f176-424d-b6d5-0b0e1ddda097/a00c2049-0a3f-4994-b4b1-e2d67645b8de"
          (reference "#PWR0511") (unit 1)
        )
      )
    )
  )

  (symbol (lib_id "Device:C") (at 114.3 69.85 0) (mirror y) (unit 1)
    (in_bom yes) (on_board yes) (dnp no)
    (uuid dad4947d-1d08-4e49-93f9-0084eddf05d6)
    (property "Reference" "C503" (at 111.379 68.6816 0)
      (effects (font (size 1.27 1.27)) (justify left))
    )
    (property "Value" "10uF" (at 111.379 70.993 0)
      (effects (font (size 1.27 1.27)) (justify left))
    )
    (property "Footprint" "Capacitor_SMD:C_0805_2012Metric" (at 113.3348 73.66 0)
      (effects (font (size 1.27 1.27)) hide)
    )
    (property "Datasheet" "~" (at 114.3 69.85 0)
      (effects (font (size 1.27 1.27)) hide)
    )
    (pin "1" (uuid 618b67a3-9dd9-47df-826c-b29b908753b0))
    (pin "2" (uuid cfebf8c6-1aca-4178-9c18-f11cdad1ce3a))
    (instances
      (project "pcb"
        (path "/ba41827b-f176-424d-b6d5-0b0e1ddda097/a00c2049-0a3f-4994-b4b1-e2d67645b8de"
          (reference "C503") (unit 1)
        )
      )
    )
  )

  (symbol (lib_id "power:GND") (at 139.7 83.82 0) (unit 1)
    (in_bom yes) (on_board yes) (dnp no)
    (uuid de79caae-43ec-4f5f-b3ed-93fc00fb0c42)
    (property "Reference" "#PWR0512" (at 139.7 90.17 0)
      (effects (font (size 1.27 1.27)) hide)
    )
    (property "Value" "GND" (at 139.7 87.63 0)
      (effects (font (size 1.27 1.27)))
    )
    (property "Footprint" "" (at 139.7 83.82 0)
      (effects (font (size 1.27 1.27)) hide)
    )
    (property "Datasheet" "" (at 139.7 83.82 0)
      (effects (font (size 1.27 1.27)) hide)
    )
    (pin "1" (uuid 9df7e3c6-90b2-45c8-a2b9-e8c7c43ce4d2))
    (instances
      (project "pcb"
        (path "/ba41827b-f176-424d-b6d5-0b0e1ddda097/a00c2049-0a3f-4994-b4b1-e2d67645b8de"
          (reference "#PWR0512") (unit 1)
        )
      )
    )
  )

  (symbol (lib_id "Device:R") (at 170.18 69.85 0) (unit 1)
    (in_bom yes) (on_board yes) (dnp no)
    (uuid edaf85f6-f467-42a6-88b0-10847dae6600)
    (property "Reference" "R505" (at 171.958 68.6816 0)
      (effects (font (size 1.27 1.27)) (justify left))
    )
    (property "Value" "270K 1%" (at 171.958 70.993 0)
      (effects (font (size 1.27 1.27)) (justify left))
    )
    (property "Footprint" "Resistor_SMD:R_0402_1005Metric" (at 168.402 69.85 90)
      (effects (font (size 1.27 1.27)) hide)
    )
    (property "Datasheet" "~" (at 170.18 69.85 0)
      (effects (font (size 1.27 1.27)) hide)
    )
    (pin "1" (uuid b060611f-3cf8-439d-97a0-b56c16773680))
    (pin "2" (uuid 374e0fe2-199e-4917-8d45-861559a3c7f4))
    (instances
      (project "pcb"
        (path "/ba41827b-f176-424d-b6d5-0b0e1ddda097/a00c2049-0a3f-4994-b4b1-e2d67645b8de"
          (reference "R505") (unit 1)
        )
      )
    )
  )

  (symbol (lib_id "Device:R") (at 139.7 80.01 0) (unit 1)
    (in_bom yes) (on_board yes) (dnp no)
    (uuid ee7a3a29-00de-48b7-961b-9e6d157c6110)
    (property "Reference" "R503" (at 141.478 78.8416 0)
      (effects (font (size 1.27 1.27)) (justify left))
    )
    (property "Value" "30.1K" (at 141.478 81.153 0)
      (effects (font (size 1.27 1.27)) (justify left))
    )
    (property "Footprint" "Resistor_SMD:R_0402_1005Metric" (at 137.922 80.01 90)
      (effects (font (size 1.27 1.27)) hide)
    )
    (property "Datasheet" "~" (at 139.7 80.01 0)
      (effects (font (size 1.27 1.27)) hide)
    )
    (pin "1" (uuid 690f6f09-3fd2-43ac-8f90-234109a55368))
    (pin "2" (uuid 6c15f65f-b9e4-4275-bfc1-deed3e1eff20))
    (instances
      (project "pcb"
        (path "/ba41827b-f176-424d-b6d5-0b0e1ddda097/a00c2049-0a3f-4994-b4b1-e2d67645b8de"
          (reference "R503") (unit 1)
        )
      )
    )
  )

  (symbol (lib_id "Device:R") (at 119.38 80.01 0) (unit 1)
    (in_bom yes) (on_board yes) (dnp no)
    (uuid f39b8d04-1005-4097-9883-82a7e516e8cd)
    (property "Reference" "R501" (at 121.158 78.8416 0)
      (effects (font (size 1.27 1.27)) (justify left))
    )
    (property "Value" "249R" (at 121.158 81.153 0)
      (effects (font (size 1.27 1.27)) (justify left))
    )
    (property "Footprint" "Resistor_SMD:R_0402_1005Metric" (at 117.602 80.01 90)
      (effects (font (size 1.27 1.27)) hide)
    )
    (property "Datasheet" "~" (at 119.38 80.01 0)
      (effects (font (size 1.27 1.27)) hide)
    )
    (pin "1" (uuid 9b734b84-c91a-42be-8abc-3a2e9742c97c))
    (pin "2" (uuid 0c3d732c-30e9-4c70-9da0-d5a7c3551e36))
    (instances
      (project "pcb"
        (path "/ba41827b-f176-424d-b6d5-0b0e1ddda097/a00c2049-0a3f-4994-b4b1-e2d67645b8de"
          (reference "R501") (unit 1)
        )
      )
    )
  )

  (symbol (lib_id "Device:C_Polarized_US") (at 92.71 123.19 0) (unit 1)
    (in_bom yes) (on_board yes) (dnp no)
    (uuid f4153642-11ae-4d86-9353-557c37a5dafa)
    (property "Reference" "C501" (at 88.9 121.92 0)
      (effects (font (size 1.27 1.27)) (justify right))
    )
    (property "Value" "470uF" (at 88.9 124.46 0)
      (effects (font (size 1.27 1.27)) (justify right))
    )
    (property "Footprint" "Capacitor_SMD:C_Elec_6.3x7.7" (at 92.71 123.19 0)
      (effects (font (size 1.27 1.27)) hide)
    )
    (property "Datasheet" "~" (at 92.71 123.19 0)
      (effects (font (size 1.27 1.27)) hide)
    )
    (pin "1" (uuid c925111f-d8ef-4719-a705-edc06e008402))
    (pin "2" (uuid 86183c84-cc95-4414-9a97-abdc01351690))
    (instances
      (project "pcb"
        (path "/ba41827b-f176-424d-b6d5-0b0e1ddda097/a00c2049-0a3f-4994-b4b1-e2d67645b8de"
          (reference "C501") (unit 1)
        )
      )
    )
  )

  (symbol (lib_id "power:GND") (at 129.54 83.82 0) (unit 1)
    (in_bom yes) (on_board yes) (dnp no)
    (uuid fde15ecb-878f-48b6-90e7-aff8db34fda3)
    (property "Reference" "#PWR0509" (at 129.54 90.17 0)
      (effects (font (size 1.27 1.27)) hide)
    )
    (property "Value" "GND" (at 129.54 87.63 0)
      (effects (font (size 1.27 1.27)))
    )
    (property "Footprint" "" (at 129.54 83.82 0)
      (effects (font (size 1.27 1.27)) hide)
    )
    (property "Datasheet" "" (at 129.54 83.82 0)
      (effects (font (size 1.27 1.27)) hide)
    )
    (pin "1" (uuid 38b1e612-39ca-45cd-9e56-700f55a30ff1))
    (instances
      (project "pcb"
        (path "/ba41827b-f176-424d-b6d5-0b0e1ddda097/a00c2049-0a3f-4994-b4b1-e2d67645b8de"
          (reference "#PWR0509") (unit 1)
        )
      )
    )
  )
)
