(kicad_sch (version 20230121) (generator eeschema)

  (uuid 478bac2a-e969-454d-a9ea-7d9e020a8a9d)

  (paper "A4")

  (lib_symbols
    (symbol "Sitina:-4V" (power) (pin_names (offset 0)) (in_bom yes) (on_board yes)
      (property "Reference" "#PWR" (at 0 -3.81 0)
        (effects (font (size 1.27 1.27)) hide)
      )
      (property "Value" "-4V" (at 0 3.556 0)
        (effects (font (size 1.27 1.27)))
      )
      (property "Footprint" "" (at 0 0 0)
        (effects (font (size 1.27 1.27)) hide)
      )
      (property "Datasheet" "" (at 0 0 0)
        (effects (font (size 1.27 1.27)) hide)
      )
      (symbol "-4V_0_1"
        (polyline
          (pts
            (xy -0.762 1.27)
            (xy 0 2.54)
          )
          (stroke (width 0) (type default))
          (fill (type none))
        )
        (polyline
          (pts
            (xy 0 0)
            (xy 0 2.54)
          )
          (stroke (width 0) (type default))
          (fill (type none))
        )
        (polyline
          (pts
            (xy 0 2.54)
            (xy 0.762 1.27)
          )
          (stroke (width 0) (type default))
          (fill (type none))
        )
      )
      (symbol "-4V_1_1"
        (pin power_in line (at 0 0 90) (length 0) hide
          (name "-4V" (effects (font (size 1.27 1.27))))
          (number "1" (effects (font (size 1.27 1.27))))
        )
      )
    )
    (symbol "power:+3V3" (power) (pin_names (offset 0)) (in_bom yes) (on_board yes)
      (property "Reference" "#PWR" (at 0 -3.81 0)
        (effects (font (size 1.27 1.27)) hide)
      )
      (property "Value" "+3V3" (at 0 3.556 0)
        (effects (font (size 1.27 1.27)))
      )
      (property "Footprint" "" (at 0 0 0)
        (effects (font (size 1.27 1.27)) hide)
      )
      (property "Datasheet" "" (at 0 0 0)
        (effects (font (size 1.27 1.27)) hide)
      )
      (property "ki_keywords" "power-flag" (at 0 0 0)
        (effects (font (size 1.27 1.27)) hide)
      )
      (property "ki_description" "Power symbol creates a global label with name \"+3V3\"" (at 0 0 0)
        (effects (font (size 1.27 1.27)) hide)
      )
      (symbol "+3V3_0_1"
        (polyline
          (pts
            (xy -0.762 1.27)
            (xy 0 2.54)
          )
          (stroke (width 0) (type default))
          (fill (type none))
        )
        (polyline
          (pts
            (xy 0 0)
            (xy 0 2.54)
          )
          (stroke (width 0) (type default))
          (fill (type none))
        )
        (polyline
          (pts
            (xy 0 2.54)
            (xy 0.762 1.27)
          )
          (stroke (width 0) (type default))
          (fill (type none))
        )
      )
      (symbol "+3V3_1_1"
        (pin power_in line (at 0 0 90) (length 0) hide
          (name "+3V3" (effects (font (size 1.27 1.27))))
          (number "1" (effects (font (size 1.27 1.27))))
        )
      )
    )
    (symbol "power:+8V" (power) (pin_names (offset 0)) (in_bom yes) (on_board yes)
      (property "Reference" "#PWR" (at 0 -3.81 0)
        (effects (font (size 1.27 1.27)) hide)
      )
      (property "Value" "+8V" (at 0 3.556 0)
        (effects (font (size 1.27 1.27)))
      )
      (property "Footprint" "" (at 0 0 0)
        (effects (font (size 1.27 1.27)) hide)
      )
      (property "Datasheet" "" (at 0 0 0)
        (effects (font (size 1.27 1.27)) hide)
      )
      (property "ki_keywords" "power-flag" (at 0 0 0)
        (effects (font (size 1.27 1.27)) hide)
      )
      (property "ki_description" "Power symbol creates a global label with name \"+8V\"" (at 0 0 0)
        (effects (font (size 1.27 1.27)) hide)
      )
      (symbol "+8V_0_1"
        (polyline
          (pts
            (xy -0.762 1.27)
            (xy 0 2.54)
          )
          (stroke (width 0) (type default))
          (fill (type none))
        )
        (polyline
          (pts
            (xy 0 0)
            (xy 0 2.54)
          )
          (stroke (width 0) (type default))
          (fill (type none))
        )
        (polyline
          (pts
            (xy 0 2.54)
            (xy 0.762 1.27)
          )
          (stroke (width 0) (type default))
          (fill (type none))
        )
      )
      (symbol "+8V_1_1"
        (pin power_in line (at 0 0 90) (length 0) hide
          (name "+8V" (effects (font (size 1.27 1.27))))
          (number "1" (effects (font (size 1.27 1.27))))
        )
      )
    )
    (symbol "power:-15V" (power) (pin_names (offset 0)) (in_bom yes) (on_board yes)
      (property "Reference" "#PWR" (at 0 2.54 0)
        (effects (font (size 1.27 1.27)) hide)
      )
      (property "Value" "-15V" (at 0 3.81 0)
        (effects (font (size 1.27 1.27)))
      )
      (property "Footprint" "" (at 0 0 0)
        (effects (font (size 1.27 1.27)) hide)
      )
      (property "Datasheet" "" (at 0 0 0)
        (effects (font (size 1.27 1.27)) hide)
      )
      (property "ki_keywords" "power-flag" (at 0 0 0)
        (effects (font (size 1.27 1.27)) hide)
      )
      (property "ki_description" "Power symbol creates a global label with name \"-15V\"" (at 0 0 0)
        (effects (font (size 1.27 1.27)) hide)
      )
      (symbol "-15V_0_0"
        (pin power_in line (at 0 0 90) (length 0) hide
          (name "-15V" (effects (font (size 1.27 1.27))))
          (number "1" (effects (font (size 1.27 1.27))))
        )
      )
      (symbol "-15V_0_1"
        (polyline
          (pts
            (xy 0 0)
            (xy 0 1.27)
            (xy 0.762 1.27)
            (xy 0 2.54)
            (xy -0.762 1.27)
            (xy 0 1.27)
          )
          (stroke (width 0) (type default))
          (fill (type outline))
        )
      )
    )
    (symbol "power:-9V" (power) (pin_names (offset 0)) (in_bom yes) (on_board yes)
      (property "Reference" "#PWR" (at 0 -3.175 0)
        (effects (font (size 1.27 1.27)) hide)
      )
      (property "Value" "-9V" (at 0 3.81 0)
        (effects (font (size 1.27 1.27)))
      )
      (property "Footprint" "" (at 0 0 0)
        (effects (font (size 1.27 1.27)) hide)
      )
      (property "Datasheet" "" (at 0 0 0)
        (effects (font (size 1.27 1.27)) hide)
      )
      (property "ki_keywords" "power-flag" (at 0 0 0)
        (effects (font (size 1.27 1.27)) hide)
      )
      (property "ki_description" "Power symbol creates a global label with name \"-9V\"" (at 0 0 0)
        (effects (font (size 1.27 1.27)) hide)
      )
      (symbol "-9V_0_1"
        (polyline
          (pts
            (xy 0 0)
            (xy 0 2.54)
          )
          (stroke (width 0) (type default))
          (fill (type none))
        )
        (polyline
          (pts
            (xy 0.762 1.27)
            (xy -0.762 1.27)
            (xy 0 2.54)
            (xy 0.762 1.27)
          )
          (stroke (width 0) (type default))
          (fill (type outline))
        )
      )
      (symbol "-9V_1_1"
        (pin power_in line (at 0 0 90) (length 0) hide
          (name "-9V" (effects (font (size 1.27 1.27))))
          (number "1" (effects (font (size 1.27 1.27))))
        )
      )
    )
    (symbol "power:GND" (power) (pin_names (offset 0)) (in_bom yes) (on_board yes)
      (property "Reference" "#PWR" (at 0 -6.35 0)
        (effects (font (size 1.27 1.27)) hide)
      )
      (property "Value" "GND" (at 0 -3.81 0)
        (effects (font (size 1.27 1.27)))
      )
      (property "Footprint" "" (at 0 0 0)
        (effects (font (size 1.27 1.27)) hide)
      )
      (property "Datasheet" "" (at 0 0 0)
        (effects (font (size 1.27 1.27)) hide)
      )
      (property "ki_keywords" "power-flag" (at 0 0 0)
        (effects (font (size 1.27 1.27)) hide)
      )
      (property "ki_description" "Power symbol creates a global label with name \"GND\" , ground" (at 0 0 0)
        (effects (font (size 1.27 1.27)) hide)
      )
      (symbol "GND_0_1"
        (polyline
          (pts
            (xy 0 0)
            (xy 0 -1.27)
            (xy 1.27 -1.27)
            (xy 0 -2.54)
            (xy -1.27 -1.27)
            (xy 0 -1.27)
          )
          (stroke (width 0) (type default))
          (fill (type none))
        )
      )
      (symbol "GND_1_1"
        (pin power_in line (at 0 0 270) (length 0) hide
          (name "GND" (effects (font (size 1.27 1.27))))
          (number "1" (effects (font (size 1.27 1.27))))
        )
      )
    )
    (symbol "symbols:+16V" (power) (pin_names (offset 0)) (in_bom yes) (on_board yes)
      (property "Reference" "#PWR" (at 0 -3.81 0)
        (effects (font (size 1.27 1.27)) hide)
      )
      (property "Value" "+16V" (at 0 3.556 0)
        (effects (font (size 1.27 1.27)))
      )
      (property "Footprint" "" (at 0 0 0)
        (effects (font (size 1.27 1.27)) hide)
      )
      (property "Datasheet" "" (at 0 0 0)
        (effects (font (size 1.27 1.27)) hide)
      )
      (symbol "+16V_0_1"
        (polyline
          (pts
            (xy -0.762 1.27)
            (xy 0 2.54)
          )
          (stroke (width 0) (type default))
          (fill (type none))
        )
        (polyline
          (pts
            (xy 0 0)
            (xy 0 2.54)
          )
          (stroke (width 0) (type default))
          (fill (type none))
        )
        (polyline
          (pts
            (xy 0 2.54)
            (xy 0.762 1.27)
          )
          (stroke (width 0) (type default))
          (fill (type none))
        )
      )
      (symbol "+16V_1_1"
        (pin power_in line (at 0 0 90) (length 0) hide
          (name "+16V" (effects (font (size 1.27 1.27))))
          (number "1" (effects (font (size 1.27 1.27))))
        )
      )
    )
  )


  (wire (pts (xy 152.4 87.63) (xy 147.32 87.63))
    (stroke (width 0) (type default))
    (uuid 07b4cb3e-7ac2-494b-87f9-d9f85f0b34d8)
  )
  (wire (pts (xy 152.4 72.39) (xy 147.32 72.39))
    (stroke (width 0) (type default))
    (uuid 107ecf44-76d2-4333-bd06-4a3d51258de8)
  )
  (wire (pts (xy 152.4 80.01) (xy 147.32 80.01))
    (stroke (width 0) (type default))
    (uuid 15c3569e-fdcb-440a-bf78-253582db94da)
  )
  (wire (pts (xy 152.4 57.15) (xy 147.32 57.15))
    (stroke (width 0) (type default))
    (uuid 188041ff-bf26-4acd-8044-43d318f3b75b)
  )
  (wire (pts (xy 152.4 52.07) (xy 147.32 52.07))
    (stroke (width 0) (type default))
    (uuid 2bcf575e-9d48-408b-b5b7-0d455a0102ab)
  )
  (wire (pts (xy 152.4 92.71) (xy 147.32 92.71))
    (stroke (width 0) (type default))
    (uuid 3a9ba50a-ed65-4520-9072-00c5a61e2269)
  )
  (wire (pts (xy 152.4 69.85) (xy 147.32 69.85))
    (stroke (width 0) (type default))
    (uuid 3edd42f7-a971-444a-83a0-d4d8d8df17a6)
  )
  (wire (pts (xy 152.4 62.23) (xy 147.32 62.23))
    (stroke (width 0) (type default))
    (uuid 4aac3cf1-e05d-46c2-b708-97c7622fd081)
  )
  (wire (pts (xy 152.4 82.55) (xy 147.32 82.55))
    (stroke (width 0) (type default))
    (uuid 54f6d78b-2020-4769-8bba-46cdf5d68a5e)
  )
  (wire (pts (xy 180.34 34.29) (xy 180.34 36.83))
    (stroke (width 0) (type default))
    (uuid 6af61bca-d11b-4c6d-a2f4-bab153461624)
  )
  (wire (pts (xy 152.4 49.53) (xy 147.32 49.53))
    (stroke (width 0) (type default))
    (uuid 6cdae251-3fc5-48e2-b7e1-3b2c017fe9b1)
  )
  (wire (pts (xy 147.32 95.25) (xy 152.4 95.25))
    (stroke (width 0) (type default))
    (uuid 829c6afd-a4df-4b5a-9dcd-7cb284f93137)
  )
  (wire (pts (xy 152.4 67.31) (xy 147.32 67.31))
    (stroke (width 0) (type default))
    (uuid 84486941-4649-43e4-967a-8a3fc641f01c)
  )
  (wire (pts (xy 152.4 90.17) (xy 147.32 90.17))
    (stroke (width 0) (type default))
    (uuid 8a1ff2d3-1052-4c6b-9d30-64c5711007cc)
  )
  (wire (pts (xy 152.4 46.99) (xy 147.32 46.99))
    (stroke (width 0) (type default))
    (uuid 8f4ce550-0fbf-424e-8af2-32bd58da5357)
  )
  (wire (pts (xy 152.4 39.37) (xy 147.32 39.37))
    (stroke (width 0) (type default))
    (uuid 92d17e95-9a9e-4892-8f37-e8d6a1a9e4c7)
  )
  (wire (pts (xy 152.4 64.77) (xy 147.32 64.77))
    (stroke (width 0) (type default))
    (uuid 99a9b355-343a-492c-a09f-dd057f7cd492)
  )
  (wire (pts (xy 152.4 59.69) (xy 147.32 59.69))
    (stroke (width 0) (type default))
    (uuid 9ed09550-f61a-44f4-a3bd-f9fd6d4602e0)
  )
  (wire (pts (xy 152.4 41.91) (xy 147.32 41.91))
    (stroke (width 0) (type default))
    (uuid 9f544d0f-2a9b-46f8-b89a-2deae064e421)
  )
  (wire (pts (xy 152.4 54.61) (xy 147.32 54.61))
    (stroke (width 0) (type default))
    (uuid a30b6189-23d1-4bd3-a634-557373a4cb51)
  )
  (wire (pts (xy 152.4 44.45) (xy 147.32 44.45))
    (stroke (width 0) (type default))
    (uuid c344a59e-d209-4d62-978a-c253eade7373)
  )
  (wire (pts (xy 152.4 85.09) (xy 147.32 85.09))
    (stroke (width 0) (type default))
    (uuid cb103769-de2e-4d0b-a2a9-1eb45f57541c)
  )
  (wire (pts (xy 152.4 77.47) (xy 147.32 77.47))
    (stroke (width 0) (type default))
    (uuid cd5a87e5-7881-4524-9a11-5d542fedc3b8)
  )
  (wire (pts (xy 152.4 74.93) (xy 147.32 74.93))
    (stroke (width 0) (type default))
    (uuid cf07a160-8728-4773-9792-fc236427d424)
  )

  (global_label "AFE_RG" (shape output) (at 74.93 40.64 180) (fields_autoplaced)
    (effects (font (size 1.27 1.27)) (justify right))
    (uuid 02c4cd2e-9d9f-4fc4-9b6c-40493179bf07)
    (property "Intersheetrefs" "${INTERSHEET_REFS}" (at 65.4926 40.5606 0)
      (effects (font (size 1.27 1.27)) (justify right) hide)
    )
  )
  (global_label "VAB" (shape input) (at 147.32 36.83 180)
    (effects (font (size 1.27 1.27)) (justify right))
    (uuid 08fff132-3564-4e34-85bc-b2d46fef2e20)
    (property "Intersheetrefs" "${INTERSHEET_REFS}" (at 60.96 217.17 0)
      (effects (font (size 1.27 1.27)) hide)
    )
  )
  (global_label "CSI_D10" (shape output) (at 147.32 77.47 180) (fields_autoplaced)
    (effects (font (size 1.27 1.27)) (justify right))
    (uuid 0b45cba3-4a4e-40ea-bb53-3e08d5ff2e23)
    (property "Intersheetrefs" "${INTERSHEET_REFS}" (at 138.185 77.3906 0)
      (effects (font (size 1.27 1.27)) (justify right) hide)
    )
  )
  (global_label "CSI_D2" (shape output) (at 147.32 57.15 180) (fields_autoplaced)
    (effects (font (size 1.27 1.27)) (justify right))
    (uuid 0ba88996-dafb-43f9-8d46-89069426bbdb)
    (property "Intersheetrefs" "${INTERSHEET_REFS}" (at 138.185 57.0706 0)
      (effects (font (size 1.27 1.27)) (justify right) hide)
    )
  )
  (global_label "CSI_D6" (shape output) (at 147.32 67.31 180) (fields_autoplaced)
    (effects (font (size 1.27 1.27)) (justify right))
    (uuid 0fd330e1-86c3-4699-8aea-42a7b5c5131f)
    (property "Intersheetrefs" "${INTERSHEET_REFS}" (at 138.185 67.2306 0)
      (effects (font (size 1.27 1.27)) (justify right) hide)
    )
  )
  (global_label "CSI_D14" (shape output) (at 147.32 87.63 180) (fields_autoplaced)
    (effects (font (size 1.27 1.27)) (justify right))
    (uuid 15d7a93c-d821-4860-a6e9-4faea8d5e89f)
    (property "Intersheetrefs" "${INTERSHEET_REFS}" (at 136.9754 87.5506 0)
      (effects (font (size 1.27 1.27)) (justify right) hide)
    )
  )
  (global_label "AFE_STROBE" (shape output) (at 147.32 95.25 180) (fields_autoplaced)
    (effects (font (size 1.27 1.27)) (justify right))
    (uuid 1cc79b00-1a07-497f-ae4a-ef935d1de3a6)
    (property "Intersheetrefs" "${INTERSHEET_REFS}" (at 132.8287 95.25 0)
      (effects (font (size 1.27 1.27)) (justify right) hide)
    )
  )
  (global_label "AFE_V1" (shape output) (at 74.93 43.18 180) (fields_autoplaced)
    (effects (font (size 1.27 1.27)) (justify right))
    (uuid 1f419ddf-5cd6-4f23-88e2-bac1c42321c0)
    (property "Intersheetrefs" "${INTERSHEET_REFS}" (at 65.7345 43.1006 0)
      (effects (font (size 1.27 1.27)) (justify right) hide)
    )
  )
  (global_label "CSI_D11" (shape output) (at 147.32 80.01 180) (fields_autoplaced)
    (effects (font (size 1.27 1.27)) (justify right))
    (uuid 206d1830-4d0f-4115-8b23-520b89739fd4)
    (property "Intersheetrefs" "${INTERSHEET_REFS}" (at 138.185 79.9306 0)
      (effects (font (size 1.27 1.27)) (justify right) hide)
    )
  )
  (global_label "AFE_V23" (shape output) (at 74.93 48.26 180) (fields_autoplaced)
    (effects (font (size 1.27 1.27)) (justify right))
    (uuid 278654c9-aff9-4eda-a319-bde5e4b658d4)
    (property "Intersheetrefs" "${INTERSHEET_REFS}" (at 64.525 48.1806 0)
      (effects (font (size 1.27 1.27)) (justify right) hide)
    )
  )
  (global_label "CSI_D9" (shape output) (at 147.32 74.93 180) (fields_autoplaced)
    (effects (font (size 1.27 1.27)) (justify right))
    (uuid 3bb4cae3-06d8-4750-b6e6-502b1d1f0015)
    (property "Intersheetrefs" "${INTERSHEET_REFS}" (at 138.185 74.8506 0)
      (effects (font (size 1.27 1.27)) (justify right) hide)
    )
  )
  (global_label "CSI_D4" (shape output) (at 147.32 62.23 180) (fields_autoplaced)
    (effects (font (size 1.27 1.27)) (justify right))
    (uuid 424d11af-05a2-435e-8e86-55f1a8f1dcd7)
    (property "Intersheetrefs" "${INTERSHEET_REFS}" (at 138.185 62.1506 0)
      (effects (font (size 1.27 1.27)) (justify right) hide)
    )
  )
  (global_label "AFE_SDATA" (shape input) (at 147.32 41.91 180) (fields_autoplaced)
    (effects (font (size 1.27 1.27)) (justify right))
    (uuid 5279b913-1d43-4eae-b1c3-70998244b4b7)
    (property "Intersheetrefs" "${INTERSHEET_REFS}" (at 134.7983 41.8306 0)
      (effects (font (size 1.27 1.27)) (justify right) hide)
    )
  )
  (global_label "CSI_D7" (shape output) (at 147.32 69.85 180) (fields_autoplaced)
    (effects (font (size 1.27 1.27)) (justify right))
    (uuid 5e819718-e3a2-4d0d-83ce-18fb9804196c)
    (property "Intersheetrefs" "${INTERSHEET_REFS}" (at 138.185 69.7706 0)
      (effects (font (size 1.27 1.27)) (justify right) hide)
    )
  )
  (global_label "AFE_H1" (shape output) (at 74.93 35.56 180) (fields_autoplaced)
    (effects (font (size 1.27 1.27)) (justify right))
    (uuid 6b9d22e0-a170-4b0a-90ea-58e18fedc7d9)
    (property "Intersheetrefs" "${INTERSHEET_REFS}" (at 65.4926 35.4806 0)
      (effects (font (size 1.27 1.27)) (justify right) hide)
    )
  )
  (global_label "CSI_D15" (shape output) (at 147.32 90.17 180) (fields_autoplaced)
    (effects (font (size 1.27 1.27)) (justify right))
    (uuid 724ce5e9-a434-4dd9-ae2f-f55e2267bd99)
    (property "Intersheetrefs" "${INTERSHEET_REFS}" (at 136.9754 90.0906 0)
      (effects (font (size 1.27 1.27)) (justify right) hide)
    )
  )
  (global_label "AFE_SL" (shape input) (at 147.32 39.37 180) (fields_autoplaced)
    (effects (font (size 1.27 1.27)) (justify right))
    (uuid 7aebb314-bec9-4e43-a86f-199f2ebdcf66)
    (property "Intersheetrefs" "${INTERSHEET_REFS}" (at 138.185 39.2906 0)
      (effects (font (size 1.27 1.27)) (justify right) hide)
    )
  )
  (global_label "AFE_V2" (shape output) (at 74.93 45.72 180) (fields_autoplaced)
    (effects (font (size 1.27 1.27)) (justify right))
    (uuid 7fef87e9-7406-489c-8927-711b81ccc3f7)
    (property "Intersheetrefs" "${INTERSHEET_REFS}" (at 65.7345 45.6406 0)
      (effects (font (size 1.27 1.27)) (justify right) hide)
    )
  )
  (global_label "AFE_FDG" (shape output) (at 74.93 50.8 180) (fields_autoplaced)
    (effects (font (size 1.27 1.27)) (justify right))
    (uuid 899dc801-3fea-4ce5-a0be-3e66e7ef72bc)
    (property "Intersheetrefs" "${INTERSHEET_REFS}" (at 64.404 50.7206 0)
      (effects (font (size 1.27 1.27)) (justify right) hide)
    )
  )
  (global_label "AFE_RST" (shape input) (at 147.32 46.99 180) (fields_autoplaced)
    (effects (font (size 1.27 1.27)) (justify right))
    (uuid 9010e86a-a47c-4b71-94f0-b75bf5a6d4e0)
    (property "Intersheetrefs" "${INTERSHEET_REFS}" (at 136.9754 46.9106 0)
      (effects (font (size 1.27 1.27)) (justify right) hide)
    )
  )
  (global_label "CSI_HSYNC" (shape output) (at 147.32 54.61 180) (fields_autoplaced)
    (effects (font (size 1.27 1.27)) (justify right))
    (uuid 99ac13eb-32f2-43bd-b80f-2703cb813bc4)
    (property "Intersheetrefs" "${INTERSHEET_REFS}" (at 134.4354 54.5306 0)
      (effects (font (size 1.27 1.27)) (justify right) hide)
    )
  )
  (global_label "AFE_SCK" (shape input) (at 147.32 44.45 180) (fields_autoplaced)
    (effects (font (size 1.27 1.27)) (justify right))
    (uuid a455b470-1aa4-4c18-ad82-f78da24f79e6)
    (property "Intersheetrefs" "${INTERSHEET_REFS}" (at 136.6731 44.3706 0)
      (effects (font (size 1.27 1.27)) (justify right) hide)
    )
  )
  (global_label "CSI_D3" (shape output) (at 147.32 59.69 180) (fields_autoplaced)
    (effects (font (size 1.27 1.27)) (justify right))
    (uuid bb699ea0-5e4a-45e3-9a20-fff802edd009)
    (property "Intersheetrefs" "${INTERSHEET_REFS}" (at 138.185 59.6106 0)
      (effects (font (size 1.27 1.27)) (justify right) hide)
    )
  )
  (global_label "CSI_D5" (shape output) (at 147.32 64.77 180) (fields_autoplaced)
    (effects (font (size 1.27 1.27)) (justify right))
    (uuid cd4f8bba-33fa-439e-887a-070ee65c723a)
    (property "Intersheetrefs" "${INTERSHEET_REFS}" (at 138.185 64.6906 0)
      (effects (font (size 1.27 1.27)) (justify right) hide)
    )
  )
  (global_label "AFE_H2" (shape output) (at 74.93 38.1 180) (fields_autoplaced)
    (effects (font (size 1.27 1.27)) (justify right))
    (uuid d1b6fb91-d1cc-4c1a-8117-c1132379512c)
    (property "Intersheetrefs" "${INTERSHEET_REFS}" (at 65.4926 38.0206 0)
      (effects (font (size 1.27 1.27)) (justify right) hide)
    )
  )
  (global_label "CSI_D13" (shape output) (at 147.32 85.09 180) (fields_autoplaced)
    (effects (font (size 1.27 1.27)) (justify right))
    (uuid d8b369c1-daa9-49b7-b72a-cc84c726e86d)
    (property "Intersheetrefs" "${INTERSHEET_REFS}" (at 138.185 85.0106 0)
      (effects (font (size 1.27 1.27)) (justify right) hide)
    )
  )
  (global_label "CSI_VSYNC" (shape output) (at 147.32 52.07 180) (fields_autoplaced)
    (effects (font (size 1.27 1.27)) (justify right))
    (uuid da1a7da4-0606-4448-835e-cffe103e65db)
    (property "Intersheetrefs" "${INTERSHEET_REFS}" (at 134.6774 51.9906 0)
      (effects (font (size 1.27 1.27)) (justify right) hide)
    )
  )
  (global_label "CSI_PIXCLK" (shape output) (at 147.32 92.71 180) (fields_autoplaced)
    (effects (font (size 1.27 1.27)) (justify right))
    (uuid dabed5b9-c527-42eb-bb93-745118f5dbf7)
    (property "Intersheetrefs" "${INTERSHEET_REFS}" (at 134.0121 92.6306 0)
      (effects (font (size 1.27 1.27)) (justify right) hide)
    )
  )
  (global_label "CSI_D12" (shape output) (at 147.32 82.55 180) (fields_autoplaced)
    (effects (font (size 1.27 1.27)) (justify right))
    (uuid ed5b72b5-1f24-4686-87c4-188d94cdce1c)
    (property "Intersheetrefs" "${INTERSHEET_REFS}" (at 138.185 82.4706 0)
      (effects (font (size 1.27 1.27)) (justify right) hide)
    )
  )
  (global_label "CSI_D8" (shape output) (at 147.32 72.39 180) (fields_autoplaced)
    (effects (font (size 1.27 1.27)) (justify right))
    (uuid fc7090b3-a001-40d9-8d97-42ea3692fec2)
    (property "Intersheetrefs" "${INTERSHEET_REFS}" (at 138.185 72.3106 0)
      (effects (font (size 1.27 1.27)) (justify right) hide)
    )
  )
  (global_label "AFE_SYNC" (shape input) (at 147.32 49.53 180) (fields_autoplaced)
    (effects (font (size 1.27 1.27)) (justify right))
    (uuid fd87c64d-c7d0-4dbb-893b-89d19c33b2c2)
    (property "Intersheetrefs" "${INTERSHEET_REFS}" (at 135.524 49.4506 0)
      (effects (font (size 1.27 1.27)) (justify right) hide)
    )
  )

  (symbol (lib_id "power:+8V") (at 162.56 88.9 0) (unit 1)
    (in_bom yes) (on_board yes) (dnp no)
    (uuid 0cc738e9-47e1-4322-9e42-64f62d5da91b)
    (property "Reference" "#PWR?" (at 162.56 92.71 0)
      (effects (font (size 1.27 1.27)) hide)
    )
    (property "Value" "+8V" (at 162.941 84.5058 0)
      (effects (font (size 1.27 1.27)))
    )
    (property "Footprint" "" (at 162.56 88.9 0)
      (effects (font (size 1.27 1.27)) hide)
    )
    (property "Datasheet" "" (at 162.56 88.9 0)
      (effects (font (size 1.27 1.27)) hide)
    )
    (pin "1" (uuid 0dd41c9f-a848-422f-b221-1906e41a1b98))
    (instances
      (project "pcb"
        (path "/ba41827b-f176-424d-b6d5-0b0e1ddda097/d386a9bf-0103-410c-b6e1-cdc61e904cc1"
          (reference "#PWR?") (unit 1)
        )
        (path "/ba41827b-f176-424d-b6d5-0b0e1ddda097/28025b55-6a64-43e1-9d20-34020d299147"
          (reference "#PWR0551") (unit 1)
        )
      )
    )
  )

  (symbol (lib_id "power:+3V3") (at 180.34 34.29 0) (unit 1)
    (in_bom yes) (on_board yes) (dnp no) (fields_autoplaced)
    (uuid 11dfcd89-21c3-4dbb-8445-53041d9dcb65)
    (property "Reference" "#PWR?" (at 180.34 38.1 0)
      (effects (font (size 1.27 1.27)) hide)
    )
    (property "Value" "+3V3" (at 180.34 29.21 0)
      (effects (font (size 1.27 1.27)))
    )
    (property "Footprint" "" (at 180.34 34.29 0)
      (effects (font (size 1.27 1.27)) hide)
    )
    (property "Datasheet" "" (at 180.34 34.29 0)
      (effects (font (size 1.27 1.27)) hide)
    )
    (pin "1" (uuid 4e222f10-e033-4ea2-b276-c7b3a65aa0fc))
    (instances
      (project "pcb"
        (path "/ba41827b-f176-424d-b6d5-0b0e1ddda097/d386a9bf-0103-410c-b6e1-cdc61e904cc1"
          (reference "#PWR?") (unit 1)
        )
        (path "/ba41827b-f176-424d-b6d5-0b0e1ddda097/28025b55-6a64-43e1-9d20-34020d299147"
          (reference "#PWR0554") (unit 1)
        )
      )
    )
  )

  (symbol (lib_id "symbols:+16V") (at 158.75 81.28 0) (unit 1)
    (in_bom yes) (on_board yes) (dnp no) (fields_autoplaced)
    (uuid 5b4a8d3b-dafd-45c8-8300-3fec64474b93)
    (property "Reference" "#PWR?" (at 158.75 85.09 0)
      (effects (font (size 1.27 1.27)) hide)
    )
    (property "Value" "+16V" (at 158.75 76.2 0)
      (effects (font (size 1.27 1.27)))
    )
    (property "Footprint" "" (at 158.75 81.28 0)
      (effects (font (size 1.27 1.27)) hide)
    )
    (property "Datasheet" "" (at 158.75 81.28 0)
      (effects (font (size 1.27 1.27)) hide)
    )
    (pin "1" (uuid 1fdbe86a-8334-41b0-ae3a-cf1371337dee))
    (instances
      (project "pcb"
        (path "/ba41827b-f176-424d-b6d5-0b0e1ddda097/568a197d-3d07-4ce3-9dad-204d21f52839"
          (reference "#PWR?") (unit 1)
        )
        (path "/ba41827b-f176-424d-b6d5-0b0e1ddda097/28025b55-6a64-43e1-9d20-34020d299147"
          (reference "#PWR0549") (unit 1)
        )
      )
    )
  )

  (symbol (lib_id "power:GND") (at 182.88 138.43 0) (unit 1)
    (in_bom yes) (on_board yes) (dnp no)
    (uuid 9c285a6b-7e22-4416-a508-682995fd4fa1)
    (property "Reference" "#PWR?" (at 182.88 144.78 0)
      (effects (font (size 1.27 1.27)) hide)
    )
    (property "Value" "GND" (at 183.007 141.6812 90)
      (effects (font (size 1.27 1.27)) (justify right))
    )
    (property "Footprint" "" (at 182.88 138.43 0)
      (effects (font (size 1.27 1.27)) hide)
    )
    (property "Datasheet" "" (at 182.88 138.43 0)
      (effects (font (size 1.27 1.27)) hide)
    )
    (pin "1" (uuid bf07e32d-4a50-421c-8411-bd384c0c8896))
    (instances
      (project "pcb"
        (path "/ba41827b-f176-424d-b6d5-0b0e1ddda097/bbc4a8ed-000d-45bd-b682-5f5fc521899f"
          (reference "#PWR?") (unit 1)
        )
        (path "/ba41827b-f176-424d-b6d5-0b0e1ddda097/28025b55-6a64-43e1-9d20-34020d299147"
          (reference "#PWR0555") (unit 1)
        )
      )
    )
  )

  (symbol (lib_id "Sitina:-4V") (at 172.72 102.87 180) (unit 1)
    (in_bom yes) (on_board yes) (dnp no)
    (uuid b2054d45-5b5d-460d-bbbe-55766ba44786)
    (property "Reference" "#PWR?" (at 172.72 99.06 0)
      (effects (font (size 1.27 1.27)) hide)
    )
    (property "Value" "-4V" (at 172.339 107.2642 0)
      (effects (font (size 1.27 1.27)))
    )
    (property "Footprint" "" (at 172.72 102.87 0)
      (effects (font (size 1.27 1.27)) hide)
    )
    (property "Datasheet" "" (at 172.72 102.87 0)
      (effects (font (size 1.27 1.27)) hide)
    )
    (pin "1" (uuid 2b24bfb5-9b2f-41c2-929f-39f29ddd123d))
    (instances
      (project "pcb"
        (path "/ba41827b-f176-424d-b6d5-0b0e1ddda097/568a197d-3d07-4ce3-9dad-204d21f52839"
          (reference "#PWR?") (unit 1)
        )
        (path "/ba41827b-f176-424d-b6d5-0b0e1ddda097/d386a9bf-0103-410c-b6e1-cdc61e904cc1"
          (reference "#PWR?") (unit 1)
        )
        (path "/ba41827b-f176-424d-b6d5-0b0e1ddda097/28025b55-6a64-43e1-9d20-34020d299147"
          (reference "#PWR0553") (unit 1)
        )
      )
    )
  )

  (symbol (lib_id "power:-15V") (at 168.91 92.71 180) (unit 1)
    (in_bom yes) (on_board yes) (dnp no)
    (uuid c6b5aa8f-cc0b-454c-b55f-0ecf2c0c98b3)
    (property "Reference" "#PWR?" (at 168.91 95.25 0)
      (effects (font (size 1.27 1.27)) hide)
    )
    (property "Value" "-15V" (at 168.91 97.79 0)
      (effects (font (size 1.27 1.27)))
    )
    (property "Footprint" "" (at 168.91 92.71 0)
      (effects (font (size 1.27 1.27)) hide)
    )
    (property "Datasheet" "" (at 168.91 92.71 0)
      (effects (font (size 1.27 1.27)) hide)
    )
    (pin "1" (uuid 509dd773-ff13-44ec-b80c-10c2d629c5b8))
    (instances
      (project "pcb"
        (path "/ba41827b-f176-424d-b6d5-0b0e1ddda097/568a197d-3d07-4ce3-9dad-204d21f52839"
          (reference "#PWR?") (unit 1)
        )
        (path "/ba41827b-f176-424d-b6d5-0b0e1ddda097/28025b55-6a64-43e1-9d20-34020d299147"
          (reference "#PWR0552") (unit 1)
        )
      )
    )
  )

  (symbol (lib_id "power:-9V") (at 160.02 92.71 180) (unit 1)
    (in_bom yes) (on_board yes) (dnp no) (fields_autoplaced)
    (uuid e172631c-8f29-4b7f-911f-979aef436de2)
    (property "Reference" "#PWR?" (at 160.02 89.535 0)
      (effects (font (size 1.27 1.27)) hide)
    )
    (property "Value" "-9V" (at 162.56 94.615 0)
      (effects (font (size 1.27 1.27)) (justify right))
    )
    (property "Footprint" "" (at 160.02 92.71 0)
      (effects (font (size 1.27 1.27)) hide)
    )
    (property "Datasheet" "" (at 160.02 92.71 0)
      (effects (font (size 1.27 1.27)) hide)
    )
    (pin "1" (uuid 7ebd391e-c518-4f47-94b9-3d3472ded741))
    (instances
      (project "pcb"
        (path "/ba41827b-f176-424d-b6d5-0b0e1ddda097/d2b12579-7abd-4725-8e52-61afb581d660"
          (reference "#PWR?") (unit 1)
        )
        (path "/ba41827b-f176-424d-b6d5-0b0e1ddda097/28025b55-6a64-43e1-9d20-34020d299147"
          (reference "#PWR0550") (unit 1)
        )
      )
    )
  )
)
